%!PS-Adobe-3.0
%%Creator: PCBNEW
%%CreationDate: Thu Aug 01 21:55:48 2019
%%Title: C:\Users\beyoso\Documents\Arduino\Esp8266_IR_Send_Mqtt\Esquematico\gerber\Wemos_SendToIR-PTH-drl_map.ps
%%Pages: 1
%%PageOrder: Ascend
%%BoundingBox: 0 0 596 842
%%DocumentMedia: A4 595 842 0 () ()
%%Orientation: Landscape
%%EndComments
%%BeginProlog
/line { newpath moveto lineto stroke } bind def
/cir0 { newpath 0 360 arc stroke } bind def
/cir1 { newpath 0 360 arc gsave fill grestore stroke } bind def
/cir2 { newpath 0 360 arc gsave fill grestore stroke } bind def
/arc0 { newpath arc stroke } bind def
/arc1 { newpath 4 index 4 index moveto arc closepath gsave fill
    grestore stroke } bind def
/arc2 { newpath 4 index 4 index moveto arc closepath gsave fill
    grestore stroke } bind def
/poly0 { stroke } bind def
/poly1 { closepath gsave fill grestore stroke } bind def
/poly2 { closepath gsave fill grestore stroke } bind def
/rect0 { rectstroke } bind def
/rect1 { rectfill } bind def
/rect2 { rectfill } bind def
/linemode0 { 0 setlinecap 0 setlinejoin 0 setlinewidth } bind def
/linemode1 { 1 setlinecap 1 setlinejoin } bind def
/dashedline { [200] 100 setdash } bind def
/solidline { [] 0 setdash } bind def
/phantomshow { moveto
    /KicadFont findfont 0.000001 scalefont setfont
    show } bind def
/textshow { gsave
    findfont exch scalefont setfont concat 1 scale 0 0 moveto show
    } bind def
/reencodefont {
  findfont dup length dict begin
  { 1 index /FID ne
    { def }
    { pop pop } ifelse
  } forall
  /Encoding ISOLatin1Encoding def
  currentdict
  end } bind def
/KicadFont /Helvetica reencodefont definefont pop
/KicadFont-Bold /Helvetica-Bold reencodefont definefont pop
/KicadFont-Oblique /Helvetica-Oblique reencodefont definefont pop
/KicadFont-BoldOblique /Helvetica-BoldOblique reencodefont definefont pop
%%EndProlog
%%Page: 1 1
%%BeginPageSetup
gsave
0.0072 0.0072 scale
linemode1
82680 0 translate 90 rotate
82.485 setlinewidth
%%EndPageSetup
0 0 0 setrgbcolor
97.4233 setlinewidth
58465 57876 20818.3 cir0
78.7401 setlinewidth
newpath
46787.2 68729 moveto
47047 68469.2 lineto
stroke
newpath
47047 68729 moveto
46787.2 68469.2 lineto
stroke
45101.9 69101 211.084 cir0
newpath
44889.8 69064 moveto
45079.8 68886.8 lineto
stroke
newpath
45124 69315.2 moveto
45314 69138 lineto
stroke
45196.9 69012.4 171.714 227 407 arc0
45006.9 69189.6 171.714 47 227 arc0
47245.8 71400 211.084 cir0
newpath
47033.7 71363 moveto
47223.7 71185.9 lineto
stroke
newpath
47267.9 71614.2 moveto
47457.9 71437 lineto
stroke
47340.8 71311.4 171.714 227 407 arc0
47150.8 71488.6 171.714 47 227 arc0
newpath
43539.6 70509.9 moveto
43539.6 70055.3 lineto
stroke
newpath
43312.3 70282.6 moveto
43766.9 70282.6 lineto
stroke
newpath
43292.7 70255.9 moveto
43530.2 70034.4 lineto
stroke
newpath
43549 70530.8 moveto
43786.5 70309.3 lineto
stroke
43658.3 70171.9 187.951 227 407 arc0
43420.8 70393.3 187.951 47 227 arc0
newpath
45958.1 73103.5 moveto
45958.1 72648.8 lineto
stroke
newpath
45730.8 72876.1 moveto
46185.4 72876.1 lineto
stroke
newpath
45711.2 72849.4 moveto
45948.7 72627.9 lineto
stroke
newpath
45967.5 73124.3 moveto
46205 72902.9 lineto
stroke
46076.8 72765.4 187.951 227 407 arc0
45839.3 72986.9 187.951 47 227 arc0
newpath
50388.7 72551.1 moveto
50388.7 72895.5 lineto
50044.3 72895.5 lineto
50044.3 72551.1 lineto
50388.7 72551.1 lineto
poly0
newpath
51213.6 73375.9 moveto
51213.6 73720.4 lineto
50869.1 73720.4 lineto
50869.1 73375.9 lineto
51213.6 73375.9 lineto
poly0
newpath
52038.4 72551.1 moveto
52038.4 72895.5 lineto
51694 72895.5 lineto
51694 72551.1 lineto
52038.4 72551.1 lineto
poly0
newpath
47741.9 43593.8 moveto
48001.7 43853.5 lineto
47741.9 44113.3 lineto
47482.2 43853.5 lineto
47741.9 43593.8 lineto
poly0
newpath
69188.1 57616.2 moveto
69447.8 57876 lineto
69188.1 58135.8 lineto
68928.3 57876 lineto
69188.1 57616.2 lineto
poly0
newpath
69188.1 49367.7 moveto
69447.8 49627.5 lineto
69188.1 49887.3 lineto
68928.3 49627.5 lineto
69188.1 49367.7 lineto
poly0
newpath
57640.1 43593.8 moveto
57899.9 43853.5 lineto
57640.1 44113.3 lineto
57380.4 43853.5 lineto
57640.1 43593.8 lineto
poly0
newpath
65888.7 43593.8 moveto
66148.4 43853.5 lineto
65888.7 44113.3 lineto
65628.9 43853.5 lineto
65888.7 43593.8 lineto
poly0
newpath
51866.2 69164.1 moveto
52126 69423.9 lineto
51866.2 69683.7 lineto
51606.4 69423.9 lineto
51866.2 69164.1 lineto
poly0
newpath
60114.7 69164.1 moveto
60374.5 69423.9 lineto
60114.7 69683.7 lineto
59854.9 69423.9 lineto
60114.7 69164.1 lineto
poly0
newpath
55990.4 43593.8 moveto
56250.2 43853.5 lineto
55990.4 44113.3 lineto
55730.7 43853.5 lineto
55990.4 43593.8 lineto
poly0
newpath
57347.9 76315 moveto
57932.4 75730.4 lineto
stroke
newpath
57932.4 76315 moveto
57347.9 75730.4 lineto
stroke
57640.1 76022.7 292.27 cir0
newpath
58997.6 76315 moveto
59582.1 75730.4 lineto
stroke
newpath
59582.1 76315 moveto
58997.6 75730.4 lineto
stroke
59289.9 76022.7 292.27 cir0
newpath
76319.4 58993.1 moveto
76904 58408.6 lineto
stroke
newpath
76904 58993.1 moveto
76319.4 58408.6 lineto
stroke
76611.7 58700.9 292.27 cir0
newpath
76319.4 57343.4 moveto
76904 56758.9 lineto
stroke
newpath
76904 57343.4 moveto
76319.4 56758.9 lineto
stroke
76611.7 57051.1 292.27 cir0
newpath
40026 58993.1 moveto
40610.6 58408.6 lineto
stroke
newpath
40610.6 58993.1 moveto
40026 58408.6 lineto
stroke
40318.3 58700.9 292.27 cir0
newpath
40026 57343.4 moveto
40610.6 56758.9 lineto
stroke
newpath
40610.6 57343.4 moveto
40026 56758.9 lineto
stroke
40318.3 57051.1 292.27 cir0
newpath
56523 40021.6 moveto
57107.6 39437 lineto
stroke
newpath
57107.6 40021.6 moveto
56523 39437 lineto
stroke
56815.3 39729.3 292.27 cir0
newpath
58172.7 40021.6 moveto
58757.3 39437 lineto
stroke
newpath
58757.3 40021.6 moveto
58172.7 39437 lineto
stroke
58465 39729.3 292.27 cir0
newpath
44117.8 50777.1 moveto
44767.3 50127.6 lineto
stroke
newpath
44767.3 50777.1 moveto
44117.8 50127.6 lineto
stroke
newpath
44442.5 50777.1 moveto
44442.5 50127.6 lineto
stroke
newpath
44117.8 50452.3 moveto
44767.3 50452.3 lineto
stroke
newpath
45767.5 50777.1 moveto
46417 50127.6 lineto
stroke
newpath
46417 50777.1 moveto
45767.5 50127.6 lineto
stroke
newpath
46092.2 50777.1 moveto
46092.2 50127.6 lineto
stroke
newpath
45767.5 50452.3 moveto
46417 50452.3 lineto
stroke
newpath
47417.2 50777.1 moveto
48066.7 50127.6 lineto
stroke
newpath
48066.7 50777.1 moveto
47417.2 50127.6 lineto
stroke
newpath
47741.9 50777.1 moveto
47741.9 50127.6 lineto
stroke
newpath
47417.2 50452.3 moveto
48066.7 50452.3 lineto
stroke
newpath
72162.7 54076.5 moveto
72812.2 53427 lineto
stroke
newpath
72812.2 54076.5 moveto
72162.7 53427 lineto
stroke
newpath
72487.5 54076.5 moveto
72487.5 53427 lineto
stroke
newpath
72162.7 53751.7 moveto
72812.2 53751.7 lineto
stroke
newpath
72162.7 52426.8 moveto
72812.2 51777.3 lineto
stroke
newpath
72812.2 52426.8 moveto
72162.7 51777.3 lineto
stroke
newpath
72487.5 52426.8 moveto
72487.5 51777.3 lineto
stroke
newpath
72162.7 52102 moveto
72812.2 52102 lineto
stroke
newpath
72162.7 50777.1 moveto
72812.2 50127.6 lineto
stroke
newpath
72812.2 50777.1 moveto
72162.7 50127.6 lineto
stroke
newpath
72487.5 50777.1 moveto
72487.5 50127.6 lineto
stroke
newpath
72162.7 50452.3 moveto
72812.2 50452.3 lineto
stroke
newpath
44942.7 60675.3 moveto
45592.1 60025.8 lineto
stroke
newpath
45592.1 60675.3 moveto
44942.7 60025.8 lineto
stroke
newpath
45267.4 60675.3 moveto
45267.4 60025.8 lineto
stroke
newpath
44942.7 60350.6 moveto
45592.1 60350.6 lineto
stroke
newpath
44942.7 59025.6 moveto
45592.1 58376.1 lineto
stroke
newpath
45592.1 59025.6 moveto
44942.7 58376.1 lineto
stroke
newpath
45267.4 59025.6 moveto
45267.4 58376.1 lineto
stroke
newpath
44942.7 58700.9 moveto
45592.1 58700.9 lineto
stroke
newpath
44942.7 57375.9 moveto
45592.1 56726.4 lineto
stroke
newpath
45592.1 57375.9 moveto
44942.7 56726.4 lineto
stroke
newpath
45267.4 57375.9 moveto
45267.4 56726.4 lineto
stroke
newpath
44942.7 57051.1 moveto
45592.1 57051.1 lineto
stroke
newpath
44942.7 55726.2 moveto
45592.1 55076.7 lineto
stroke
newpath
45592.1 55726.2 moveto
44942.7 55076.7 lineto
stroke
newpath
45267.4 55726.2 moveto
45267.4 55076.7 lineto
stroke
newpath
44942.7 55401.4 moveto
45592.1 55401.4 lineto
stroke
newpath
69688.2 43353.4 moveto
70337.6 42704 lineto
stroke
newpath
70337.6 43353.4 moveto
69688.2 42704 lineto
stroke
newpath
70012.9 43353.4 moveto
70012.9 42704 lineto
stroke
newpath
69688.2 43028.7 moveto
70337.6 43028.7 lineto
stroke
newpath
70748.6 44617.2 moveto
71398.1 43967.7 lineto
stroke
newpath
71398.1 44617.2 moveto
70748.6 43967.7 lineto
stroke
newpath
71073.3 44617.2 moveto
71073.3 43967.7 lineto
stroke
newpath
70748.6 44292.4 moveto
71398.1 44292.4 lineto
stroke
newpath
71809 45880.9 moveto
72458.5 45231.4 lineto
stroke
newpath
72458.5 45880.9 moveto
71809 45231.4 lineto
stroke
newpath
72133.7 45880.9 moveto
72133.7 45231.4 lineto
stroke
newpath
71809 45556.2 moveto
72458.5 45556.2 lineto
stroke
newpath
51536.3 63155 moveto
52196.1 62495.2 lineto
stroke
newpath
52196.1 63155 moveto
51536.3 62495.2 lineto
stroke
newpath
52099.5 62591.8 moveto
52099.5 63058.4 lineto
51632.9 63058.4 lineto
51632.9 62591.8 lineto
52099.5 62591.8 lineto
poly0
newpath
51536.3 61505.3 moveto
52196.1 60845.5 lineto
stroke
newpath
52196.1 61505.3 moveto
51536.3 60845.5 lineto
stroke
newpath
52099.5 60942.1 moveto
52099.5 61408.7 lineto
51632.9 61408.7 lineto
51632.9 60942.1 lineto
52099.5 60942.1 lineto
poly0
newpath
51536.3 59855.6 moveto
52196.1 59195.8 lineto
stroke
newpath
52196.1 59855.6 moveto
51536.3 59195.8 lineto
stroke
newpath
52099.5 59292.4 moveto
52099.5 59759 lineto
51632.9 59759 lineto
51632.9 59292.4 lineto
52099.5 59292.4 lineto
poly0
newpath
51536.3 58205.9 moveto
52196.1 57546.1 lineto
stroke
newpath
52196.1 58205.9 moveto
51536.3 57546.1 lineto
stroke
newpath
52099.5 57642.7 moveto
52099.5 58109.3 lineto
51632.9 58109.3 lineto
51632.9 57642.7 lineto
52099.5 57642.7 lineto
poly0
newpath
51536.3 56556.2 moveto
52196.1 55896.4 lineto
stroke
newpath
52196.1 56556.2 moveto
51536.3 55896.4 lineto
stroke
newpath
52099.5 55993 moveto
52099.5 56459.6 lineto
51632.9 56459.6 lineto
51632.9 55993 lineto
52099.5 55993 lineto
poly0
newpath
51536.3 54906.5 moveto
52196.1 54246.7 lineto
stroke
newpath
52196.1 54906.5 moveto
51536.3 54246.7 lineto
stroke
newpath
52099.5 54343.3 moveto
52099.5 54809.9 lineto
51632.9 54809.9 lineto
51632.9 54343.3 lineto
52099.5 54343.3 lineto
poly0
newpath
51536.3 53256.8 moveto
52196.1 52597 lineto
stroke
newpath
52196.1 53256.8 moveto
51536.3 52597 lineto
stroke
newpath
52099.5 52693.6 moveto
52099.5 53160.2 lineto
51632.9 53160.2 lineto
51632.9 52693.6 lineto
52099.5 52693.6 lineto
poly0
newpath
51536.3 51607.1 moveto
52196.1 50947.3 lineto
stroke
newpath
52196.1 51607.1 moveto
51536.3 50947.3 lineto
stroke
newpath
52099.5 51043.9 moveto
52099.5 51510.5 lineto
51632.9 51510.5 lineto
51632.9 51043.9 lineto
52099.5 51043.9 lineto
poly0
newpath
66383.6 63155 moveto
67043.4 62495.2 lineto
stroke
newpath
67043.4 63155 moveto
66383.6 62495.2 lineto
stroke
newpath
66946.8 62591.8 moveto
66946.8 63058.4 lineto
66480.2 63058.4 lineto
66480.2 62591.8 lineto
66946.8 62591.8 lineto
poly0
newpath
66383.6 61505.3 moveto
67043.4 60845.5 lineto
stroke
newpath
67043.4 61505.3 moveto
66383.6 60845.5 lineto
stroke
newpath
66946.8 60942.1 moveto
66946.8 61408.7 lineto
66480.2 61408.7 lineto
66480.2 60942.1 lineto
66946.8 60942.1 lineto
poly0
newpath
66383.6 59855.6 moveto
67043.4 59195.8 lineto
stroke
newpath
67043.4 59855.6 moveto
66383.6 59195.8 lineto
stroke
newpath
66946.8 59292.4 moveto
66946.8 59759 lineto
66480.2 59759 lineto
66480.2 59292.4 lineto
66946.8 59292.4 lineto
poly0
newpath
66383.6 58205.9 moveto
67043.4 57546.1 lineto
stroke
newpath
67043.4 58205.9 moveto
66383.6 57546.1 lineto
stroke
newpath
66946.8 57642.7 moveto
66946.8 58109.3 lineto
66480.2 58109.3 lineto
66480.2 57642.7 lineto
66946.8 57642.7 lineto
poly0
newpath
66383.6 56556.2 moveto
67043.4 55896.4 lineto
stroke
newpath
67043.4 56556.2 moveto
66383.6 55896.4 lineto
stroke
newpath
66946.8 55993 moveto
66946.8 56459.6 lineto
66480.2 56459.6 lineto
66480.2 55993 lineto
66946.8 55993 lineto
poly0
newpath
66383.6 54906.5 moveto
67043.4 54246.7 lineto
stroke
newpath
67043.4 54906.5 moveto
66383.6 54246.7 lineto
stroke
newpath
66946.8 54343.3 moveto
66946.8 54809.9 lineto
66480.2 54809.9 lineto
66480.2 54343.3 lineto
66946.8 54343.3 lineto
poly0
newpath
66383.6 53256.8 moveto
67043.4 52597 lineto
stroke
newpath
67043.4 53256.8 moveto
66383.6 52597 lineto
stroke
newpath
66946.8 52693.6 moveto
66946.8 53160.2 lineto
66480.2 53160.2 lineto
66480.2 52693.6 lineto
66946.8 52693.6 lineto
poly0
newpath
66383.6 51607.1 moveto
67043.4 50947.3 lineto
stroke
newpath
67043.4 51607.1 moveto
66383.6 50947.3 lineto
stroke
newpath
66946.8 51043.9 moveto
66946.8 51510.5 lineto
66480.2 51510.5 lineto
66480.2 51043.9 lineto
66946.8 51043.9 lineto
poly0
118.11 setlinewidth
0 0 0 setrgbcolor
0 0 0 setrgbcolor
newpath
38725.7 35175.5 moveto
38725.7 36356.6 lineto
39006.9 36356.6 lineto
39175.6 36300.3 lineto
39288.1 36187.9 lineto
39344.4 36075.4 lineto
39400.6 35850.4 lineto
39400.6 35681.7 lineto
39344.4 35456.7 lineto
39288.1 35344.2 lineto
39175.6 35231.7 lineto
39006.9 35175.5 lineto
38725.7 35175.5 lineto
stroke
newpath
39906.8 35175.5 moveto
39906.8 35962.9 lineto
stroke
newpath
39906.8 35737.9 moveto
39963 35850.4 lineto
40019.3 35906.6 lineto
40131.8 35962.9 lineto
40244.2 35962.9 lineto
stroke
newpath
40637.9 35175.5 moveto
40637.9 35962.9 lineto
stroke
newpath
40637.9 36356.6 moveto
40581.7 36300.3 lineto
40637.9 36244.1 lineto
40694.2 36300.3 lineto
40637.9 36356.6 lineto
40637.9 36244.1 lineto
stroke
newpath
41369.1 35175.5 moveto
41256.6 35231.7 lineto
41200.4 35344.2 lineto
41200.4 36356.6 lineto
stroke
newpath
41987.8 35175.5 moveto
41875.3 35231.7 lineto
41819 35344.2 lineto
41819 36356.6 lineto
stroke
newpath
43337.6 35175.5 moveto
43337.6 36356.6 lineto
43731.3 35512.9 lineto
44125 36356.6 lineto
44125 35175.5 lineto
stroke
newpath
45193.6 35175.5 moveto
45193.6 35794.2 lineto
45137.4 35906.6 lineto
45024.9 35962.9 lineto
44799.9 35962.9 lineto
44687.4 35906.6 lineto
stroke
newpath
45193.6 35231.7 moveto
45081.1 35175.5 lineto
44799.9 35175.5 lineto
44687.4 35231.7 lineto
44631.2 35344.2 lineto
44631.2 35456.7 lineto
44687.4 35569.2 lineto
44799.9 35625.4 lineto
45081.1 35625.4 lineto
45193.6 35681.7 lineto
stroke
newpath
45756.1 35962.9 moveto
45756.1 34781.8 lineto
stroke
newpath
45756.1 35906.6 moveto
45868.5 35962.9 lineto
46093.5 35962.9 lineto
46206 35906.6 lineto
46262.2 35850.4 lineto
46318.5 35737.9 lineto
46318.5 35400.5 lineto
46262.2 35288 lineto
46206 35231.7 lineto
46093.5 35175.5 lineto
45868.5 35175.5 lineto
45756.1 35231.7 lineto
stroke
newpath
46824.7 35288 moveto
46880.9 35231.7 lineto
46824.7 35175.5 lineto
46768.4 35231.7 lineto
46824.7 35288 lineto
46824.7 35175.5 lineto
stroke
newpath
46824.7 35906.6 moveto
46880.9 35850.4 lineto
46824.7 35794.2 lineto
46768.4 35850.4 lineto
46824.7 35906.6 lineto
46824.7 35794.2 lineto
stroke
newpath
37338.2 33359.4 moveto
37598 33099.6 lineto
stroke
newpath
37598 33359.4 moveto
37338.2 33099.6 lineto
stroke
0 0 0 setrgbcolor
0 0 0 setrgbcolor
newpath
38950.7 33876.3 moveto
39063.1 33876.3 lineto
39175.6 33820 lineto
39231.9 33763.8 lineto
39288.1 33651.3 lineto
39344.4 33426.3 lineto
39344.4 33145.1 lineto
39288.1 32920.1 lineto
39231.9 32807.7 lineto
39175.6 32751.4 lineto
39063.1 32695.2 lineto
38950.7 32695.2 lineto
38838.2 32751.4 lineto
38781.9 32807.7 lineto
38725.7 32920.1 lineto
38669.4 33145.1 lineto
38669.4 33426.3 lineto
38725.7 33651.3 lineto
38781.9 33763.8 lineto
38838.2 33820 lineto
38950.7 33876.3 lineto
stroke
newpath
39850.5 32807.7 moveto
39906.8 32751.4 lineto
39850.5 32695.2 lineto
39794.3 32751.4 lineto
39850.5 32807.7 lineto
39850.5 32695.2 lineto
stroke
newpath
40919.2 33482.6 moveto
40919.2 32695.2 lineto
stroke
newpath
40637.9 33932.5 moveto
40356.7 33088.9 lineto
41087.9 33088.9 lineto
stroke
newpath
41762.8 33876.3 moveto
41875.3 33876.3 lineto
41987.8 33820 lineto
42044 33763.8 lineto
42100.3 33651.3 lineto
42156.5 33426.3 lineto
42156.5 33145.1 lineto
42100.3 32920.1 lineto
42044 32807.7 lineto
41987.8 32751.4 lineto
41875.3 32695.2 lineto
41762.8 32695.2 lineto
41650.3 32751.4 lineto
41594.1 32807.7 lineto
41537.8 32920.1 lineto
41481.6 33145.1 lineto
41481.6 33426.3 lineto
41537.8 33651.3 lineto
41594.1 33763.8 lineto
41650.3 33820 lineto
41762.8 33876.3 lineto
stroke
newpath
42662.7 32695.2 moveto
42662.7 33482.6 lineto
stroke
newpath
42662.7 33370.1 moveto
42718.9 33426.3 lineto
42831.4 33482.6 lineto
43000.1 33482.6 lineto
43112.6 33426.3 lineto
43168.9 33313.8 lineto
43168.9 32695.2 lineto
stroke
newpath
43168.9 33313.8 moveto
43225.1 33426.3 lineto
43337.6 33482.6 lineto
43506.3 33482.6 lineto
43618.8 33426.3 lineto
43675.1 33313.8 lineto
43675.1 32695.2 lineto
stroke
newpath
44237.5 32695.2 moveto
44237.5 33482.6 lineto
stroke
newpath
44237.5 33370.1 moveto
44293.7 33426.3 lineto
44406.2 33482.6 lineto
44574.9 33482.6 lineto
44687.4 33426.3 lineto
44743.7 33313.8 lineto
44743.7 32695.2 lineto
stroke
newpath
44743.7 33313.8 moveto
44799.9 33426.3 lineto
44912.4 33482.6 lineto
45081.1 33482.6 lineto
45193.6 33426.3 lineto
45249.9 33313.8 lineto
45249.9 32695.2 lineto
stroke
newpath
47555.8 33932.5 moveto
46543.5 32414 lineto
stroke
newpath
49074.4 33876.3 moveto
49186.9 33876.3 lineto
49299.4 33820 lineto
49355.6 33763.8 lineto
49411.8 33651.3 lineto
49468.1 33426.3 lineto
49468.1 33145.1 lineto
49411.8 32920.1 lineto
49355.6 32807.7 lineto
49299.4 32751.4 lineto
49186.9 32695.2 lineto
49074.4 32695.2 lineto
48961.9 32751.4 lineto
48905.7 32807.7 lineto
48849.4 32920.1 lineto
48793.2 33145.1 lineto
48793.2 33426.3 lineto
48849.4 33651.3 lineto
48905.7 33763.8 lineto
48961.9 33820 lineto
49074.4 33876.3 lineto
stroke
newpath
49974.3 32807.7 moveto
50030.5 32751.4 lineto
49974.3 32695.2 lineto
49918 32751.4 lineto
49974.3 32807.7 lineto
49974.3 32695.2 lineto
stroke
newpath
50761.7 33876.3 moveto
50874.2 33876.3 lineto
50986.6 33820 lineto
51042.9 33763.8 lineto
51099.1 33651.3 lineto
51155.4 33426.3 lineto
51155.4 33145.1 lineto
51099.1 32920.1 lineto
51042.9 32807.7 lineto
50986.6 32751.4 lineto
50874.2 32695.2 lineto
50761.7 32695.2 lineto
50649.2 32751.4 lineto
50592.9 32807.7 lineto
50536.7 32920.1 lineto
50480.5 33145.1 lineto
50480.5 33426.3 lineto
50536.7 33651.3 lineto
50592.9 33763.8 lineto
50649.2 33820 lineto
50761.7 33876.3 lineto
stroke
newpath
52280.2 32695.2 moveto
51605.3 32695.2 lineto
stroke
newpath
51942.8 32695.2 moveto
51942.8 33876.3 lineto
51830.3 33707.5 lineto
51717.8 33595.1 lineto
51605.3 33538.8 lineto
stroke
newpath
53292.6 33876.3 moveto
53067.6 33876.3 lineto
52955.2 33820 lineto
52898.9 33763.8 lineto
52786.4 33595.1 lineto
52730.2 33370.1 lineto
52730.2 32920.1 lineto
52786.4 32807.7 lineto
52842.7 32751.4 lineto
52955.2 32695.2 lineto
53180.1 32695.2 lineto
53292.6 32751.4 lineto
53348.9 32807.7 lineto
53405.1 32920.1 lineto
53405.1 33201.4 lineto
53348.9 33313.8 lineto
53292.6 33370.1 lineto
53180.1 33426.3 lineto
52955.2 33426.3 lineto
52842.7 33370.1 lineto
52786.4 33313.8 lineto
52730.2 33201.4 lineto
stroke
newpath
53855 33876.3 moveto
53855 33651.3 lineto
stroke
newpath
54305 33876.3 moveto
54305 33651.3 lineto
stroke
newpath
56048.5 32245.2 moveto
55992.3 32301.5 lineto
55879.8 32470.2 lineto
55823.5 32582.7 lineto
55767.3 32751.4 lineto
55711.1 33032.6 lineto
55711.1 33257.6 lineto
55767.3 33538.8 lineto
55823.5 33707.5 lineto
55879.8 33820 lineto
55992.3 33988.8 lineto
56048.5 34045 lineto
stroke
newpath
57117.1 32695.2 moveto
56442.2 32695.2 lineto
stroke
newpath
56779.7 32695.2 moveto
56779.7 33876.3 lineto
56667.2 33707.5 lineto
56554.7 33595.1 lineto
56442.2 33538.8 lineto
stroke
newpath
58523.2 32695.2 moveto
58523.2 33876.3 lineto
stroke
newpath
59029.4 32695.2 moveto
59029.4 33313.8 lineto
58973.1 33426.3 lineto
58860.7 33482.6 lineto
58691.9 33482.6 lineto
58579.4 33426.3 lineto
58523.2 33370.1 lineto
stroke
newpath
59760.6 32695.2 moveto
59648.1 32751.4 lineto
59591.8 32807.7 lineto
59535.6 32920.1 lineto
59535.6 33257.6 lineto
59591.8 33370.1 lineto
59648.1 33426.3 lineto
59760.6 33482.6 lineto
59929.3 33482.6 lineto
60041.8 33426.3 lineto
60098 33370.1 lineto
60154.3 33257.6 lineto
60154.3 32920.1 lineto
60098 32807.7 lineto
60041.8 32751.4 lineto
59929.3 32695.2 lineto
59760.6 32695.2 lineto
stroke
newpath
60829.2 32695.2 moveto
60716.7 32751.4 lineto
60660.4 32863.9 lineto
60660.4 33876.3 lineto
stroke
newpath
61729.1 32751.4 moveto
61616.6 32695.2 lineto
61391.6 32695.2 lineto
61279.1 32751.4 lineto
61222.9 32863.9 lineto
61222.9 33313.8 lineto
61279.1 33426.3 lineto
61391.6 33482.6 lineto
61616.6 33482.6 lineto
61729.1 33426.3 lineto
61785.3 33313.8 lineto
61785.3 33201.4 lineto
61222.9 33088.9 lineto
stroke
newpath
62179 32245.2 moveto
62235.2 32301.5 lineto
62347.7 32470.2 lineto
62404 32582.7 lineto
62460.2 32751.4 lineto
62516.5 33032.6 lineto
62516.5 33257.6 lineto
62460.2 33538.8 lineto
62404 33707.5 lineto
62347.7 33820 lineto
62235.2 33988.8 lineto
62179 34045 lineto
stroke
37386.9 31670.4 211.084 cir0
0 0 0 setrgbcolor
0 0 0 setrgbcolor
newpath
38950.7 32317.2 moveto
39063.1 32317.2 lineto
39175.6 32261 lineto
39231.9 32204.7 lineto
39288.1 32092.2 lineto
39344.4 31867.3 lineto
39344.4 31586.1 lineto
39288.1 31361.1 lineto
39231.9 31248.6 lineto
39175.6 31192.4 lineto
39063.1 31136.1 lineto
38950.7 31136.1 lineto
38838.2 31192.4 lineto
38781.9 31248.6 lineto
38725.7 31361.1 lineto
38669.4 31586.1 lineto
38669.4 31867.3 lineto
38725.7 32092.2 lineto
38781.9 32204.7 lineto
38838.2 32261 lineto
38950.7 32317.2 lineto
stroke
newpath
39850.5 31248.6 moveto
39906.8 31192.4 lineto
39850.5 31136.1 lineto
39794.3 31192.4 lineto
39850.5 31248.6 lineto
39850.5 31136.1 lineto
stroke
newpath
40919.2 32317.2 moveto
40694.2 32317.2 lineto
40581.7 32261 lineto
40525.5 32204.7 lineto
40413 32036 lineto
40356.7 31811 lineto
40356.7 31361.1 lineto
40413 31248.6 lineto
40469.2 31192.4 lineto
40581.7 31136.1 lineto
40806.7 31136.1 lineto
40919.2 31192.4 lineto
40975.4 31248.6 lineto
41031.6 31361.1 lineto
41031.6 31642.3 lineto
40975.4 31754.8 lineto
40919.2 31811 lineto
40806.7 31867.3 lineto
40581.7 31867.3 lineto
40469.2 31811 lineto
40413 31754.8 lineto
40356.7 31642.3 lineto
stroke
newpath
42100.3 32317.2 moveto
41537.8 32317.2 lineto
41481.6 31754.8 lineto
41537.8 31811 lineto
41650.3 31867.3 lineto
41931.5 31867.3 lineto
42044 31811 lineto
42100.3 31754.8 lineto
42156.5 31642.3 lineto
42156.5 31361.1 lineto
42100.3 31248.6 lineto
42044 31192.4 lineto
41931.5 31136.1 lineto
41650.3 31136.1 lineto
41537.8 31192.4 lineto
41481.6 31248.6 lineto
stroke
newpath
42662.7 31136.1 moveto
42662.7 31923.5 lineto
stroke
newpath
42662.7 31811 moveto
42718.9 31867.3 lineto
42831.4 31923.5 lineto
43000.1 31923.5 lineto
43112.6 31867.3 lineto
43168.9 31754.8 lineto
43168.9 31136.1 lineto
stroke
newpath
43168.9 31754.8 moveto
43225.1 31867.3 lineto
43337.6 31923.5 lineto
43506.3 31923.5 lineto
43618.8 31867.3 lineto
43675.1 31754.8 lineto
43675.1 31136.1 lineto
stroke
newpath
44237.5 31136.1 moveto
44237.5 31923.5 lineto
stroke
newpath
44237.5 31811 moveto
44293.7 31867.3 lineto
44406.2 31923.5 lineto
44574.9 31923.5 lineto
44687.4 31867.3 lineto
44743.7 31754.8 lineto
44743.7 31136.1 lineto
stroke
newpath
44743.7 31754.8 moveto
44799.9 31867.3 lineto
44912.4 31923.5 lineto
45081.1 31923.5 lineto
45193.6 31867.3 lineto
45249.9 31754.8 lineto
45249.9 31136.1 lineto
stroke
newpath
47555.8 32373.5 moveto
46543.5 30854.9 lineto
stroke
newpath
49074.4 32317.2 moveto
49186.9 32317.2 lineto
49299.4 32261 lineto
49355.6 32204.7 lineto
49411.8 32092.2 lineto
49468.1 31867.3 lineto
49468.1 31586.1 lineto
49411.8 31361.1 lineto
49355.6 31248.6 lineto
49299.4 31192.4 lineto
49186.9 31136.1 lineto
49074.4 31136.1 lineto
48961.9 31192.4 lineto
48905.7 31248.6 lineto
48849.4 31361.1 lineto
48793.2 31586.1 lineto
48793.2 31867.3 lineto
48849.4 32092.2 lineto
48905.7 32204.7 lineto
48961.9 32261 lineto
49074.4 32317.2 lineto
stroke
newpath
49974.3 31248.6 moveto
50030.5 31192.4 lineto
49974.3 31136.1 lineto
49918 31192.4 lineto
49974.3 31248.6 lineto
49974.3 31136.1 lineto
stroke
newpath
50761.7 32317.2 moveto
50874.2 32317.2 lineto
50986.6 32261 lineto
51042.9 32204.7 lineto
51099.1 32092.2 lineto
51155.4 31867.3 lineto
51155.4 31586.1 lineto
51099.1 31361.1 lineto
51042.9 31248.6 lineto
50986.6 31192.4 lineto
50874.2 31136.1 lineto
50761.7 31136.1 lineto
50649.2 31192.4 lineto
50592.9 31248.6 lineto
50536.7 31361.1 lineto
50480.5 31586.1 lineto
50480.5 31867.3 lineto
50536.7 32092.2 lineto
50592.9 32204.7 lineto
50649.2 32261 lineto
50761.7 32317.2 lineto
stroke
newpath
51605.3 32204.7 moveto
51661.6 32261 lineto
51774 32317.2 lineto
52055.3 32317.2 lineto
52167.7 32261 lineto
52224 32204.7 lineto
52280.2 32092.2 lineto
52280.2 31979.8 lineto
52224 31811 lineto
51549.1 31136.1 lineto
52280.2 31136.1 lineto
stroke
newpath
53292.6 32317.2 moveto
53067.6 32317.2 lineto
52955.2 32261 lineto
52898.9 32204.7 lineto
52786.4 32036 lineto
52730.2 31811 lineto
52730.2 31361.1 lineto
52786.4 31248.6 lineto
52842.7 31192.4 lineto
52955.2 31136.1 lineto
53180.1 31136.1 lineto
53292.6 31192.4 lineto
53348.9 31248.6 lineto
53405.1 31361.1 lineto
53405.1 31642.3 lineto
53348.9 31754.8 lineto
53292.6 31811 lineto
53180.1 31867.3 lineto
52955.2 31867.3 lineto
52842.7 31811 lineto
52786.4 31754.8 lineto
52730.2 31642.3 lineto
stroke
newpath
53855 32317.2 moveto
53855 32092.2 lineto
stroke
newpath
54305 32317.2 moveto
54305 32092.2 lineto
stroke
newpath
56048.5 30686.2 moveto
55992.3 30742.4 lineto
55879.8 30911.1 lineto
55823.5 31023.6 lineto
55767.3 31192.4 lineto
55711.1 31473.6 lineto
55711.1 31698.5 lineto
55767.3 31979.8 lineto
55823.5 32148.5 lineto
55879.8 32261 lineto
55992.3 32429.7 lineto
56048.5 32485.9 lineto
stroke
newpath
56723.4 32317.2 moveto
56835.9 32317.2 lineto
56948.4 32261 lineto
57004.6 32204.7 lineto
57060.9 32092.2 lineto
57117.1 31867.3 lineto
57117.1 31586.1 lineto
57060.9 31361.1 lineto
57004.6 31248.6 lineto
56948.4 31192.4 lineto
56835.9 31136.1 lineto
56723.4 31136.1 lineto
56610.9 31192.4 lineto
56554.7 31248.6 lineto
56498.5 31361.1 lineto
56442.2 31586.1 lineto
56442.2 31867.3 lineto
56498.5 32092.2 lineto
56554.7 32204.7 lineto
56610.9 32261 lineto
56723.4 32317.2 lineto
stroke
newpath
58523.2 31136.1 moveto
58523.2 32317.2 lineto
stroke
newpath
59029.4 31136.1 moveto
59029.4 31754.8 lineto
58973.1 31867.3 lineto
58860.7 31923.5 lineto
58691.9 31923.5 lineto
58579.4 31867.3 lineto
58523.2 31811 lineto
stroke
newpath
59760.6 31136.1 moveto
59648.1 31192.4 lineto
59591.8 31248.6 lineto
59535.6 31361.1 lineto
59535.6 31698.5 lineto
59591.8 31811 lineto
59648.1 31867.3 lineto
59760.6 31923.5 lineto
59929.3 31923.5 lineto
60041.8 31867.3 lineto
60098 31811 lineto
60154.3 31698.5 lineto
60154.3 31361.1 lineto
60098 31248.6 lineto
60041.8 31192.4 lineto
59929.3 31136.1 lineto
59760.6 31136.1 lineto
stroke
newpath
60829.2 31136.1 moveto
60716.7 31192.4 lineto
60660.4 31304.8 lineto
60660.4 32317.2 lineto
stroke
newpath
61729.1 31192.4 moveto
61616.6 31136.1 lineto
61391.6 31136.1 lineto
61279.1 31192.4 lineto
61222.9 31304.8 lineto
61222.9 31754.8 lineto
61279.1 31867.3 lineto
61391.6 31923.5 lineto
61616.6 31923.5 lineto
61729.1 31867.3 lineto
61785.3 31754.8 lineto
61785.3 31642.3 lineto
61222.9 31529.8 lineto
stroke
newpath
62235.2 31192.4 moveto
62347.7 31136.1 lineto
62572.7 31136.1 lineto
62685.2 31192.4 lineto
62741.4 31304.8 lineto
62741.4 31361.1 lineto
62685.2 31473.6 lineto
62572.7 31529.8 lineto
62404 31529.8 lineto
62291.5 31586.1 lineto
62235.2 31698.5 lineto
62235.2 31754.8 lineto
62291.5 31867.3 lineto
62404 31923.5 lineto
62572.7 31923.5 lineto
62685.2 31867.3 lineto
stroke
newpath
64147.5 31586.1 moveto
65047.4 31586.1 lineto
stroke
newpath
64597.4 31136.1 moveto
64597.4 32036 lineto
stroke
newpath
66453.5 32204.7 moveto
66509.7 32261 lineto
66622.2 32317.2 lineto
66903.4 32317.2 lineto
67015.9 32261 lineto
67072.1 32204.7 lineto
67128.4 32092.2 lineto
67128.4 31979.8 lineto
67072.1 31811 lineto
66397.2 31136.1 lineto
67128.4 31136.1 lineto
stroke
newpath
68478.2 31192.4 moveto
68590.7 31136.1 lineto
68815.7 31136.1 lineto
68928.2 31192.4 lineto
68984.4 31304.8 lineto
68984.4 31361.1 lineto
68928.2 31473.6 lineto
68815.7 31529.8 lineto
68646.9 31529.8 lineto
68534.5 31586.1 lineto
68478.2 31698.5 lineto
68478.2 31754.8 lineto
68534.5 31867.3 lineto
68646.9 31923.5 lineto
68815.7 31923.5 lineto
68928.2 31867.3 lineto
stroke
newpath
69659.3 31136.1 moveto
69546.8 31192.4 lineto
69490.6 31304.8 lineto
69490.6 32317.2 lineto
stroke
newpath
70278 31136.1 moveto
70165.5 31192.4 lineto
70109.3 31248.6 lineto
70053 31361.1 lineto
70053 31698.5 lineto
70109.3 31811 lineto
70165.5 31867.3 lineto
70278 31923.5 lineto
70446.7 31923.5 lineto
70559.2 31867.3 lineto
70615.4 31811 lineto
70671.7 31698.5 lineto
70671.7 31361.1 lineto
70615.4 31248.6 lineto
70559.2 31192.4 lineto
70446.7 31136.1 lineto
70278 31136.1 lineto
stroke
newpath
71009.1 31923.5 moveto
71459.1 31923.5 lineto
stroke
newpath
71177.9 32317.2 moveto
71177.9 31304.8 lineto
71234.1 31192.4 lineto
71346.6 31136.1 lineto
71459.1 31136.1 lineto
stroke
newpath
71796.5 31192.4 moveto
71909 31136.1 lineto
72134 31136.1 lineto
72246.5 31192.4 lineto
72302.7 31304.8 lineto
72302.7 31361.1 lineto
72246.5 31473.6 lineto
72134 31529.8 lineto
71965.3 31529.8 lineto
71852.8 31586.1 lineto
71796.5 31698.5 lineto
71796.5 31754.8 lineto
71852.8 31867.3 lineto
71965.3 31923.5 lineto
72134 31923.5 lineto
72246.5 31867.3 lineto
stroke
newpath
72696.4 30686.2 moveto
72752.7 30742.4 lineto
72865.2 30911.1 lineto
72921.4 31023.6 lineto
72977.6 31192.4 lineto
73033.9 31473.6 lineto
73033.9 31698.5 lineto
72977.6 31979.8 lineto
72921.4 32148.5 lineto
72865.2 32261 lineto
72752.7 32429.7 lineto
72696.4 32485.9 lineto
stroke
newpath
37370.7 30338.7 moveto
37370.7 29884.1 lineto
stroke
newpath
37143.4 30111.4 moveto
37598 30111.4 lineto
stroke
0 0 0 setrgbcolor
0 0 0 setrgbcolor
newpath
38950.7 30758.2 moveto
39063.1 30758.2 lineto
39175.6 30701.9 lineto
39231.9 30645.7 lineto
39288.1 30533.2 lineto
39344.4 30308.2 lineto
39344.4 30027 lineto
39288.1 29802 lineto
39231.9 29689.5 lineto
39175.6 29633.3 lineto
39063.1 29577.1 lineto
38950.7 29577.1 lineto
38838.2 29633.3 lineto
38781.9 29689.5 lineto
38725.7 29802 lineto
38669.4 30027 lineto
38669.4 30308.2 lineto
38725.7 30533.2 lineto
38781.9 30645.7 lineto
38838.2 30701.9 lineto
38950.7 30758.2 lineto
stroke
newpath
39850.5 29689.5 moveto
39906.8 29633.3 lineto
39850.5 29577.1 lineto
39794.3 29633.3 lineto
39850.5 29689.5 lineto
39850.5 29577.1 lineto
stroke
newpath
40300.5 30758.2 moveto
41087.9 30758.2 lineto
40581.7 29577.1 lineto
stroke
newpath
41762.8 30758.2 moveto
41875.3 30758.2 lineto
41987.8 30701.9 lineto
42044 30645.7 lineto
42100.3 30533.2 lineto
42156.5 30308.2 lineto
42156.5 30027 lineto
42100.3 29802 lineto
42044 29689.5 lineto
41987.8 29633.3 lineto
41875.3 29577.1 lineto
41762.8 29577.1 lineto
41650.3 29633.3 lineto
41594.1 29689.5 lineto
41537.8 29802 lineto
41481.6 30027 lineto
41481.6 30308.2 lineto
41537.8 30533.2 lineto
41594.1 30645.7 lineto
41650.3 30701.9 lineto
41762.8 30758.2 lineto
stroke
newpath
42662.7 29577.1 moveto
42662.7 30364.5 lineto
stroke
newpath
42662.7 30252 moveto
42718.9 30308.2 lineto
42831.4 30364.5 lineto
43000.1 30364.5 lineto
43112.6 30308.2 lineto
43168.9 30195.7 lineto
43168.9 29577.1 lineto
stroke
newpath
43168.9 30195.7 moveto
43225.1 30308.2 lineto
43337.6 30364.5 lineto
43506.3 30364.5 lineto
43618.8 30308.2 lineto
43675.1 30195.7 lineto
43675.1 29577.1 lineto
stroke
newpath
44237.5 29577.1 moveto
44237.5 30364.5 lineto
stroke
newpath
44237.5 30252 moveto
44293.7 30308.2 lineto
44406.2 30364.5 lineto
44574.9 30364.5 lineto
44687.4 30308.2 lineto
44743.7 30195.7 lineto
44743.7 29577.1 lineto
stroke
newpath
44743.7 30195.7 moveto
44799.9 30308.2 lineto
44912.4 30364.5 lineto
45081.1 30364.5 lineto
45193.6 30308.2 lineto
45249.9 30195.7 lineto
45249.9 29577.1 lineto
stroke
newpath
47555.8 30814.4 moveto
46543.5 29295.8 lineto
stroke
newpath
49074.4 30758.2 moveto
49186.9 30758.2 lineto
49299.4 30701.9 lineto
49355.6 30645.7 lineto
49411.8 30533.2 lineto
49468.1 30308.2 lineto
49468.1 30027 lineto
49411.8 29802 lineto
49355.6 29689.5 lineto
49299.4 29633.3 lineto
49186.9 29577.1 lineto
49074.4 29577.1 lineto
48961.9 29633.3 lineto
48905.7 29689.5 lineto
48849.4 29802 lineto
48793.2 30027 lineto
48793.2 30308.2 lineto
48849.4 30533.2 lineto
48905.7 30645.7 lineto
48961.9 30701.9 lineto
49074.4 30758.2 lineto
stroke
newpath
49974.3 29689.5 moveto
50030.5 29633.3 lineto
49974.3 29577.1 lineto
49918 29633.3 lineto
49974.3 29689.5 lineto
49974.3 29577.1 lineto
stroke
newpath
50761.7 30758.2 moveto
50874.2 30758.2 lineto
50986.6 30701.9 lineto
51042.9 30645.7 lineto
51099.1 30533.2 lineto
51155.4 30308.2 lineto
51155.4 30027 lineto
51099.1 29802 lineto
51042.9 29689.5 lineto
50986.6 29633.3 lineto
50874.2 29577.1 lineto
50761.7 29577.1 lineto
50649.2 29633.3 lineto
50592.9 29689.5 lineto
50536.7 29802 lineto
50480.5 30027 lineto
50480.5 30308.2 lineto
50536.7 30533.2 lineto
50592.9 30645.7 lineto
50649.2 30701.9 lineto
50761.7 30758.2 lineto
stroke
newpath
51605.3 30645.7 moveto
51661.6 30701.9 lineto
51774 30758.2 lineto
52055.3 30758.2 lineto
52167.7 30701.9 lineto
52224 30645.7 lineto
52280.2 30533.2 lineto
52280.2 30420.7 lineto
52224 30252 lineto
51549.1 29577.1 lineto
52280.2 29577.1 lineto
stroke
newpath
52955.2 30252 moveto
52842.7 30308.2 lineto
52786.4 30364.5 lineto
52730.2 30477 lineto
52730.2 30533.2 lineto
52786.4 30645.7 lineto
52842.7 30701.9 lineto
52955.2 30758.2 lineto
53180.1 30758.2 lineto
53292.6 30701.9 lineto
53348.9 30645.7 lineto
53405.1 30533.2 lineto
53405.1 30477 lineto
53348.9 30364.5 lineto
53292.6 30308.2 lineto
53180.1 30252 lineto
52955.2 30252 lineto
52842.7 30195.7 lineto
52786.4 30139.5 lineto
52730.2 30027 lineto
52730.2 29802 lineto
52786.4 29689.5 lineto
52842.7 29633.3 lineto
52955.2 29577.1 lineto
53180.1 29577.1 lineto
53292.6 29633.3 lineto
53348.9 29689.5 lineto
53405.1 29802 lineto
53405.1 30027 lineto
53348.9 30139.5 lineto
53292.6 30195.7 lineto
53180.1 30252 lineto
stroke
newpath
53855 30758.2 moveto
53855 30533.2 lineto
stroke
newpath
54305 30758.2 moveto
54305 30533.2 lineto
stroke
newpath
56048.5 29127.1 moveto
55992.3 29183.4 lineto
55879.8 29352.1 lineto
55823.5 29464.6 lineto
55767.3 29633.3 lineto
55711.1 29914.5 lineto
55711.1 30139.5 lineto
55767.3 30420.7 lineto
55823.5 30589.4 lineto
55879.8 30701.9 lineto
55992.3 30870.7 lineto
56048.5 30926.9 lineto
stroke
newpath
56723.4 30758.2 moveto
56835.9 30758.2 lineto
56948.4 30701.9 lineto
57004.6 30645.7 lineto
57060.9 30533.2 lineto
57117.1 30308.2 lineto
57117.1 30027 lineto
57060.9 29802 lineto
57004.6 29689.5 lineto
56948.4 29633.3 lineto
56835.9 29577.1 lineto
56723.4 29577.1 lineto
56610.9 29633.3 lineto
56554.7 29689.5 lineto
56498.5 29802 lineto
56442.2 30027 lineto
56442.2 30308.2 lineto
56498.5 30533.2 lineto
56554.7 30645.7 lineto
56610.9 30701.9 lineto
56723.4 30758.2 lineto
stroke
newpath
58523.2 29577.1 moveto
58523.2 30758.2 lineto
stroke
newpath
59029.4 29577.1 moveto
59029.4 30195.7 lineto
58973.1 30308.2 lineto
58860.7 30364.5 lineto
58691.9 30364.5 lineto
58579.4 30308.2 lineto
58523.2 30252 lineto
stroke
newpath
59760.6 29577.1 moveto
59648.1 29633.3 lineto
59591.8 29689.5 lineto
59535.6 29802 lineto
59535.6 30139.5 lineto
59591.8 30252 lineto
59648.1 30308.2 lineto
59760.6 30364.5 lineto
59929.3 30364.5 lineto
60041.8 30308.2 lineto
60098 30252 lineto
60154.3 30139.5 lineto
60154.3 29802 lineto
60098 29689.5 lineto
60041.8 29633.3 lineto
59929.3 29577.1 lineto
59760.6 29577.1 lineto
stroke
newpath
60829.2 29577.1 moveto
60716.7 29633.3 lineto
60660.4 29745.8 lineto
60660.4 30758.2 lineto
stroke
newpath
61729.1 29633.3 moveto
61616.6 29577.1 lineto
61391.6 29577.1 lineto
61279.1 29633.3 lineto
61222.9 29745.8 lineto
61222.9 30195.7 lineto
61279.1 30308.2 lineto
61391.6 30364.5 lineto
61616.6 30364.5 lineto
61729.1 30308.2 lineto
61785.3 30195.7 lineto
61785.3 30083.3 lineto
61222.9 29970.8 lineto
stroke
newpath
62235.2 29633.3 moveto
62347.7 29577.1 lineto
62572.7 29577.1 lineto
62685.2 29633.3 lineto
62741.4 29745.8 lineto
62741.4 29802 lineto
62685.2 29914.5 lineto
62572.7 29970.8 lineto
62404 29970.8 lineto
62291.5 30027 lineto
62235.2 30139.5 lineto
62235.2 30195.7 lineto
62291.5 30308.2 lineto
62404 30364.5 lineto
62572.7 30364.5 lineto
62685.2 30308.2 lineto
stroke
newpath
64147.5 30027 moveto
65047.4 30027 lineto
stroke
newpath
64597.4 29577.1 moveto
64597.4 30477 lineto
stroke
newpath
66453.5 30645.7 moveto
66509.7 30701.9 lineto
66622.2 30758.2 lineto
66903.4 30758.2 lineto
67015.9 30701.9 lineto
67072.1 30645.7 lineto
67128.4 30533.2 lineto
67128.4 30420.7 lineto
67072.1 30252 lineto
66397.2 29577.1 lineto
67128.4 29577.1 lineto
stroke
newpath
68478.2 29633.3 moveto
68590.7 29577.1 lineto
68815.7 29577.1 lineto
68928.2 29633.3 lineto
68984.4 29745.8 lineto
68984.4 29802 lineto
68928.2 29914.5 lineto
68815.7 29970.8 lineto
68646.9 29970.8 lineto
68534.5 30027 lineto
68478.2 30139.5 lineto
68478.2 30195.7 lineto
68534.5 30308.2 lineto
68646.9 30364.5 lineto
68815.7 30364.5 lineto
68928.2 30308.2 lineto
stroke
newpath
69659.3 29577.1 moveto
69546.8 29633.3 lineto
69490.6 29745.8 lineto
69490.6 30758.2 lineto
stroke
newpath
70278 29577.1 moveto
70165.5 29633.3 lineto
70109.3 29689.5 lineto
70053 29802 lineto
70053 30139.5 lineto
70109.3 30252 lineto
70165.5 30308.2 lineto
70278 30364.5 lineto
70446.7 30364.5 lineto
70559.2 30308.2 lineto
70615.4 30252 lineto
70671.7 30139.5 lineto
70671.7 29802 lineto
70615.4 29689.5 lineto
70559.2 29633.3 lineto
70446.7 29577.1 lineto
70278 29577.1 lineto
stroke
newpath
71009.1 30364.5 moveto
71459.1 30364.5 lineto
stroke
newpath
71177.9 30758.2 moveto
71177.9 29745.8 lineto
71234.1 29633.3 lineto
71346.6 29577.1 lineto
71459.1 29577.1 lineto
stroke
newpath
71796.5 29633.3 moveto
71909 29577.1 lineto
72134 29577.1 lineto
72246.5 29633.3 lineto
72302.7 29745.8 lineto
72302.7 29802 lineto
72246.5 29914.5 lineto
72134 29970.8 lineto
71965.3 29970.8 lineto
71852.8 30027 lineto
71796.5 30139.5 lineto
71796.5 30195.7 lineto
71852.8 30308.2 lineto
71965.3 30364.5 lineto
72134 30364.5 lineto
72246.5 30308.2 lineto
stroke
newpath
72696.4 29127.1 moveto
72752.7 29183.4 lineto
72865.2 29352.1 lineto
72921.4 29464.6 lineto
72977.6 29633.3 lineto
73033.9 29914.5 lineto
73033.9 30139.5 lineto
72977.6 30420.7 lineto
72921.4 30589.4 lineto
72865.2 30701.9 lineto
72752.7 30870.7 lineto
72696.4 30926.9 lineto
stroke
newpath
37526.7 28380.1 moveto
37526.7 28724.5 lineto
37182.2 28724.5 lineto
37182.2 28380.1 lineto
37526.7 28380.1 lineto
poly0
0 0 0 setrgbcolor
0 0 0 setrgbcolor
newpath
38950.7 29199.1 moveto
39063.1 29199.1 lineto
39175.6 29142.9 lineto
39231.9 29086.6 lineto
39288.1 28974.1 lineto
39344.4 28749.2 lineto
39344.4 28468 lineto
39288.1 28243 lineto
39231.9 28130.5 lineto
39175.6 28074.3 lineto
39063.1 28018 lineto
38950.7 28018 lineto
38838.2 28074.3 lineto
38781.9 28130.5 lineto
38725.7 28243 lineto
38669.4 28468 lineto
38669.4 28749.2 lineto
38725.7 28974.1 lineto
38781.9 29086.6 lineto
38838.2 29142.9 lineto
38950.7 29199.1 lineto
stroke
newpath
39850.5 28130.5 moveto
39906.8 28074.3 lineto
39850.5 28018 lineto
39794.3 28074.3 lineto
39850.5 28130.5 lineto
39850.5 28018 lineto
stroke
newpath
40300.5 29199.1 moveto
41087.9 29199.1 lineto
40581.7 28018 lineto
stroke
newpath
42100.3 29199.1 moveto
41537.8 29199.1 lineto
41481.6 28636.7 lineto
41537.8 28692.9 lineto
41650.3 28749.2 lineto
41931.5 28749.2 lineto
42044 28692.9 lineto
42100.3 28636.7 lineto
42156.5 28524.2 lineto
42156.5 28243 lineto
42100.3 28130.5 lineto
42044 28074.3 lineto
41931.5 28018 lineto
41650.3 28018 lineto
41537.8 28074.3 lineto
41481.6 28130.5 lineto
stroke
newpath
42662.7 28018 moveto
42662.7 28805.4 lineto
stroke
newpath
42662.7 28692.9 moveto
42718.9 28749.2 lineto
42831.4 28805.4 lineto
43000.1 28805.4 lineto
43112.6 28749.2 lineto
43168.9 28636.7 lineto
43168.9 28018 lineto
stroke
newpath
43168.9 28636.7 moveto
43225.1 28749.2 lineto
43337.6 28805.4 lineto
43506.3 28805.4 lineto
43618.8 28749.2 lineto
43675.1 28636.7 lineto
43675.1 28018 lineto
stroke
newpath
44237.5 28018 moveto
44237.5 28805.4 lineto
stroke
newpath
44237.5 28692.9 moveto
44293.7 28749.2 lineto
44406.2 28805.4 lineto
44574.9 28805.4 lineto
44687.4 28749.2 lineto
44743.7 28636.7 lineto
44743.7 28018 lineto
stroke
newpath
44743.7 28636.7 moveto
44799.9 28749.2 lineto
44912.4 28805.4 lineto
45081.1 28805.4 lineto
45193.6 28749.2 lineto
45249.9 28636.7 lineto
45249.9 28018 lineto
stroke
newpath
47555.8 29255.4 moveto
46543.5 27736.8 lineto
stroke
newpath
49074.4 29199.1 moveto
49186.9 29199.1 lineto
49299.4 29142.9 lineto
49355.6 29086.6 lineto
49411.8 28974.1 lineto
49468.1 28749.2 lineto
49468.1 28468 lineto
49411.8 28243 lineto
49355.6 28130.5 lineto
49299.4 28074.3 lineto
49186.9 28018 lineto
49074.4 28018 lineto
48961.9 28074.3 lineto
48905.7 28130.5 lineto
48849.4 28243 lineto
48793.2 28468 lineto
48793.2 28749.2 lineto
48849.4 28974.1 lineto
48905.7 29086.6 lineto
48961.9 29142.9 lineto
49074.4 29199.1 lineto
stroke
newpath
49974.3 28130.5 moveto
50030.5 28074.3 lineto
49974.3 28018 lineto
49918 28074.3 lineto
49974.3 28130.5 lineto
49974.3 28018 lineto
stroke
newpath
50761.7 29199.1 moveto
50874.2 29199.1 lineto
50986.6 29142.9 lineto
51042.9 29086.6 lineto
51099.1 28974.1 lineto
51155.4 28749.2 lineto
51155.4 28468 lineto
51099.1 28243 lineto
51042.9 28130.5 lineto
50986.6 28074.3 lineto
50874.2 28018 lineto
50761.7 28018 lineto
50649.2 28074.3 lineto
50592.9 28130.5 lineto
50536.7 28243 lineto
50480.5 28468 lineto
50480.5 28749.2 lineto
50536.7 28974.1 lineto
50592.9 29086.6 lineto
50649.2 29142.9 lineto
50761.7 29199.1 lineto
stroke
newpath
51549.1 29199.1 moveto
52280.2 29199.1 lineto
51886.5 28749.2 lineto
52055.3 28749.2 lineto
52167.7 28692.9 lineto
52224 28636.7 lineto
52280.2 28524.2 lineto
52280.2 28243 lineto
52224 28130.5 lineto
52167.7 28074.3 lineto
52055.3 28018 lineto
51717.8 28018 lineto
51605.3 28074.3 lineto
51549.1 28130.5 lineto
stroke
newpath
53011.4 29199.1 moveto
53123.9 29199.1 lineto
53236.4 29142.9 lineto
53292.6 29086.6 lineto
53348.9 28974.1 lineto
53405.1 28749.2 lineto
53405.1 28468 lineto
53348.9 28243 lineto
53292.6 28130.5 lineto
53236.4 28074.3 lineto
53123.9 28018 lineto
53011.4 28018 lineto
52898.9 28074.3 lineto
52842.7 28130.5 lineto
52786.4 28243 lineto
52730.2 28468 lineto
52730.2 28749.2 lineto
52786.4 28974.1 lineto
52842.7 29086.6 lineto
52898.9 29142.9 lineto
53011.4 29199.1 lineto
stroke
newpath
53855 29199.1 moveto
53855 28974.1 lineto
stroke
newpath
54305 29199.1 moveto
54305 28974.1 lineto
stroke
newpath
56048.5 27568.1 moveto
55992.3 27624.3 lineto
55879.8 27793 lineto
55823.5 27905.5 lineto
55767.3 28074.3 lineto
55711.1 28355.5 lineto
55711.1 28580.4 lineto
55767.3 28861.7 lineto
55823.5 29030.4 lineto
55879.8 29142.9 lineto
55992.3 29311.6 lineto
56048.5 29367.8 lineto
stroke
newpath
56386 29199.1 moveto
57117.1 29199.1 lineto
56723.4 28749.2 lineto
56892.2 28749.2 lineto
57004.6 28692.9 lineto
57060.9 28636.7 lineto
57117.1 28524.2 lineto
57117.1 28243 lineto
57060.9 28130.5 lineto
57004.6 28074.3 lineto
56892.2 28018 lineto
56554.7 28018 lineto
56442.2 28074.3 lineto
56386 28130.5 lineto
stroke
newpath
58523.2 28018 moveto
58523.2 29199.1 lineto
stroke
newpath
59029.4 28018 moveto
59029.4 28636.7 lineto
58973.1 28749.2 lineto
58860.7 28805.4 lineto
58691.9 28805.4 lineto
58579.4 28749.2 lineto
58523.2 28692.9 lineto
stroke
newpath
59760.6 28018 moveto
59648.1 28074.3 lineto
59591.8 28130.5 lineto
59535.6 28243 lineto
59535.6 28580.4 lineto
59591.8 28692.9 lineto
59648.1 28749.2 lineto
59760.6 28805.4 lineto
59929.3 28805.4 lineto
60041.8 28749.2 lineto
60098 28692.9 lineto
60154.3 28580.4 lineto
60154.3 28243 lineto
60098 28130.5 lineto
60041.8 28074.3 lineto
59929.3 28018 lineto
59760.6 28018 lineto
stroke
newpath
60829.2 28018 moveto
60716.7 28074.3 lineto
60660.4 28186.7 lineto
60660.4 29199.1 lineto
stroke
newpath
61729.1 28074.3 moveto
61616.6 28018 lineto
61391.6 28018 lineto
61279.1 28074.3 lineto
61222.9 28186.7 lineto
61222.9 28636.7 lineto
61279.1 28749.2 lineto
61391.6 28805.4 lineto
61616.6 28805.4 lineto
61729.1 28749.2 lineto
61785.3 28636.7 lineto
61785.3 28524.2 lineto
61222.9 28411.7 lineto
stroke
newpath
62235.2 28074.3 moveto
62347.7 28018 lineto
62572.7 28018 lineto
62685.2 28074.3 lineto
62741.4 28186.7 lineto
62741.4 28243 lineto
62685.2 28355.5 lineto
62572.7 28411.7 lineto
62404 28411.7 lineto
62291.5 28468 lineto
62235.2 28580.4 lineto
62235.2 28636.7 lineto
62291.5 28749.2 lineto
62404 28805.4 lineto
62572.7 28805.4 lineto
62685.2 28749.2 lineto
stroke
newpath
63135.1 27568.1 moveto
63191.4 27624.3 lineto
63303.9 27793 lineto
63360.1 27905.5 lineto
63416.3 28074.3 lineto
63472.6 28355.5 lineto
63472.6 28580.4 lineto
63416.3 28861.7 lineto
63360.1 29030.4 lineto
63303.9 29142.9 lineto
63191.4 29311.6 lineto
63135.1 29367.8 lineto
stroke
newpath
37338.2 26733.5 moveto
37598 26993.3 lineto
37338.2 27253.1 lineto
37078.4 26993.3 lineto
37338.2 26733.5 lineto
poly0
0 0 0 setrgbcolor
0 0 0 setrgbcolor
newpath
38950.7 27640.1 moveto
39063.1 27640.1 lineto
39175.6 27583.8 lineto
39231.9 27527.6 lineto
39288.1 27415.1 lineto
39344.4 27190.1 lineto
39344.4 26908.9 lineto
39288.1 26683.9 lineto
39231.9 26571.4 lineto
39175.6 26515.2 lineto
39063.1 26459 lineto
38950.7 26459 lineto
38838.2 26515.2 lineto
38781.9 26571.4 lineto
38725.7 26683.9 lineto
38669.4 26908.9 lineto
38669.4 27190.1 lineto
38725.7 27415.1 lineto
38781.9 27527.6 lineto
38838.2 27583.8 lineto
38950.7 27640.1 lineto
stroke
newpath
39850.5 26571.4 moveto
39906.8 26515.2 lineto
39850.5 26459 lineto
39794.3 26515.2 lineto
39850.5 26571.4 lineto
39850.5 26459 lineto
stroke
newpath
40581.7 27133.9 moveto
40469.2 27190.1 lineto
40413 27246.4 lineto
40356.7 27358.8 lineto
40356.7 27415.1 lineto
40413 27527.6 lineto
40469.2 27583.8 lineto
40581.7 27640.1 lineto
40806.7 27640.1 lineto
40919.2 27583.8 lineto
40975.4 27527.6 lineto
41031.6 27415.1 lineto
41031.6 27358.8 lineto
40975.4 27246.4 lineto
40919.2 27190.1 lineto
40806.7 27133.9 lineto
40581.7 27133.9 lineto
40469.2 27077.6 lineto
40413 27021.4 lineto
40356.7 26908.9 lineto
40356.7 26683.9 lineto
40413 26571.4 lineto
40469.2 26515.2 lineto
40581.7 26459 lineto
40806.7 26459 lineto
40919.2 26515.2 lineto
40975.4 26571.4 lineto
41031.6 26683.9 lineto
41031.6 26908.9 lineto
40975.4 27021.4 lineto
40919.2 27077.6 lineto
40806.7 27133.9 lineto
stroke
newpath
41762.8 27640.1 moveto
41875.3 27640.1 lineto
41987.8 27583.8 lineto
42044 27527.6 lineto
42100.3 27415.1 lineto
42156.5 27190.1 lineto
42156.5 26908.9 lineto
42100.3 26683.9 lineto
42044 26571.4 lineto
41987.8 26515.2 lineto
41875.3 26459 lineto
41762.8 26459 lineto
41650.3 26515.2 lineto
41594.1 26571.4 lineto
41537.8 26683.9 lineto
41481.6 26908.9 lineto
41481.6 27190.1 lineto
41537.8 27415.1 lineto
41594.1 27527.6 lineto
41650.3 27583.8 lineto
41762.8 27640.1 lineto
stroke
newpath
42662.7 26459 moveto
42662.7 27246.4 lineto
stroke
newpath
42662.7 27133.9 moveto
42718.9 27190.1 lineto
42831.4 27246.4 lineto
43000.1 27246.4 lineto
43112.6 27190.1 lineto
43168.9 27077.6 lineto
43168.9 26459 lineto
stroke
newpath
43168.9 27077.6 moveto
43225.1 27190.1 lineto
43337.6 27246.4 lineto
43506.3 27246.4 lineto
43618.8 27190.1 lineto
43675.1 27077.6 lineto
43675.1 26459 lineto
stroke
newpath
44237.5 26459 moveto
44237.5 27246.4 lineto
stroke
newpath
44237.5 27133.9 moveto
44293.7 27190.1 lineto
44406.2 27246.4 lineto
44574.9 27246.4 lineto
44687.4 27190.1 lineto
44743.7 27077.6 lineto
44743.7 26459 lineto
stroke
newpath
44743.7 27077.6 moveto
44799.9 27190.1 lineto
44912.4 27246.4 lineto
45081.1 27246.4 lineto
45193.6 27190.1 lineto
45249.9 27077.6 lineto
45249.9 26459 lineto
stroke
newpath
47555.8 27696.3 moveto
46543.5 26177.7 lineto
stroke
newpath
49074.4 27640.1 moveto
49186.9 27640.1 lineto
49299.4 27583.8 lineto
49355.6 27527.6 lineto
49411.8 27415.1 lineto
49468.1 27190.1 lineto
49468.1 26908.9 lineto
49411.8 26683.9 lineto
49355.6 26571.4 lineto
49299.4 26515.2 lineto
49186.9 26459 lineto
49074.4 26459 lineto
48961.9 26515.2 lineto
48905.7 26571.4 lineto
48849.4 26683.9 lineto
48793.2 26908.9 lineto
48793.2 27190.1 lineto
48849.4 27415.1 lineto
48905.7 27527.6 lineto
48961.9 27583.8 lineto
49074.4 27640.1 lineto
stroke
newpath
49974.3 26571.4 moveto
50030.5 26515.2 lineto
49974.3 26459 lineto
49918 26515.2 lineto
49974.3 26571.4 lineto
49974.3 26459 lineto
stroke
newpath
50761.7 27640.1 moveto
50874.2 27640.1 lineto
50986.6 27583.8 lineto
51042.9 27527.6 lineto
51099.1 27415.1 lineto
51155.4 27190.1 lineto
51155.4 26908.9 lineto
51099.1 26683.9 lineto
51042.9 26571.4 lineto
50986.6 26515.2 lineto
50874.2 26459 lineto
50761.7 26459 lineto
50649.2 26515.2 lineto
50592.9 26571.4 lineto
50536.7 26683.9 lineto
50480.5 26908.9 lineto
50480.5 27190.1 lineto
50536.7 27415.1 lineto
50592.9 27527.6 lineto
50649.2 27583.8 lineto
50761.7 27640.1 lineto
stroke
newpath
51549.1 27640.1 moveto
52280.2 27640.1 lineto
51886.5 27190.1 lineto
52055.3 27190.1 lineto
52167.7 27133.9 lineto
52224 27077.6 lineto
52280.2 26965.1 lineto
52280.2 26683.9 lineto
52224 26571.4 lineto
52167.7 26515.2 lineto
52055.3 26459 lineto
51717.8 26459 lineto
51605.3 26515.2 lineto
51549.1 26571.4 lineto
stroke
newpath
53405.1 26459 moveto
52730.2 26459 lineto
stroke
newpath
53067.6 26459 moveto
53067.6 27640.1 lineto
52955.2 27471.3 lineto
52842.7 27358.8 lineto
52730.2 27302.6 lineto
stroke
newpath
53855 27640.1 moveto
53855 27415.1 lineto
stroke
newpath
54305 27640.1 moveto
54305 27415.1 lineto
stroke
newpath
56048.5 26009 moveto
55992.3 26065.3 lineto
55879.8 26234 lineto
55823.5 26346.5 lineto
55767.3 26515.2 lineto
55711.1 26796.4 lineto
55711.1 27021.4 lineto
55767.3 27302.6 lineto
55823.5 27471.3 lineto
55879.8 27583.8 lineto
55992.3 27752.5 lineto
56048.5 27808.8 lineto
stroke
newpath
56667.2 27133.9 moveto
56554.7 27190.1 lineto
56498.5 27246.4 lineto
56442.2 27358.8 lineto
56442.2 27415.1 lineto
56498.5 27527.6 lineto
56554.7 27583.8 lineto
56667.2 27640.1 lineto
56892.2 27640.1 lineto
57004.6 27583.8 lineto
57060.9 27527.6 lineto
57117.1 27415.1 lineto
57117.1 27358.8 lineto
57060.9 27246.4 lineto
57004.6 27190.1 lineto
56892.2 27133.9 lineto
56667.2 27133.9 lineto
56554.7 27077.6 lineto
56498.5 27021.4 lineto
56442.2 26908.9 lineto
56442.2 26683.9 lineto
56498.5 26571.4 lineto
56554.7 26515.2 lineto
56667.2 26459 lineto
56892.2 26459 lineto
57004.6 26515.2 lineto
57060.9 26571.4 lineto
57117.1 26683.9 lineto
57117.1 26908.9 lineto
57060.9 27021.4 lineto
57004.6 27077.6 lineto
56892.2 27133.9 lineto
stroke
newpath
58523.2 26459 moveto
58523.2 27640.1 lineto
stroke
newpath
59029.4 26459 moveto
59029.4 27077.6 lineto
58973.1 27190.1 lineto
58860.7 27246.4 lineto
58691.9 27246.4 lineto
58579.4 27190.1 lineto
58523.2 27133.9 lineto
stroke
newpath
59760.6 26459 moveto
59648.1 26515.2 lineto
59591.8 26571.4 lineto
59535.6 26683.9 lineto
59535.6 27021.4 lineto
59591.8 27133.9 lineto
59648.1 27190.1 lineto
59760.6 27246.4 lineto
59929.3 27246.4 lineto
60041.8 27190.1 lineto
60098 27133.9 lineto
60154.3 27021.4 lineto
60154.3 26683.9 lineto
60098 26571.4 lineto
60041.8 26515.2 lineto
59929.3 26459 lineto
59760.6 26459 lineto
stroke
newpath
60829.2 26459 moveto
60716.7 26515.2 lineto
60660.4 26627.7 lineto
60660.4 27640.1 lineto
stroke
newpath
61729.1 26515.2 moveto
61616.6 26459 lineto
61391.6 26459 lineto
61279.1 26515.2 lineto
61222.9 26627.7 lineto
61222.9 27077.6 lineto
61279.1 27190.1 lineto
61391.6 27246.4 lineto
61616.6 27246.4 lineto
61729.1 27190.1 lineto
61785.3 27077.6 lineto
61785.3 26965.1 lineto
61222.9 26852.7 lineto
stroke
newpath
62235.2 26515.2 moveto
62347.7 26459 lineto
62572.7 26459 lineto
62685.2 26515.2 lineto
62741.4 26627.7 lineto
62741.4 26683.9 lineto
62685.2 26796.4 lineto
62572.7 26852.7 lineto
62404 26852.7 lineto
62291.5 26908.9 lineto
62235.2 27021.4 lineto
62235.2 27077.6 lineto
62291.5 27190.1 lineto
62404 27246.4 lineto
62572.7 27246.4 lineto
62685.2 27190.1 lineto
stroke
newpath
63135.1 26009 moveto
63191.4 26065.3 lineto
63303.9 26234 lineto
63360.1 26346.5 lineto
63416.3 26515.2 lineto
63472.6 26796.4 lineto
63472.6 27021.4 lineto
63416.3 27302.6 lineto
63360.1 27471.3 lineto
63303.9 27583.8 lineto
63191.4 27752.5 lineto
63135.1 27808.8 lineto
stroke
newpath
37013.5 25726.5 moveto
37598 25141.9 lineto
stroke
newpath
37598 25726.5 moveto
37013.5 25141.9 lineto
stroke
37305.7 25434.2 292.27 cir0
0 0 0 setrgbcolor
0 0 0 setrgbcolor
newpath
38950.7 26081 moveto
39063.1 26081 lineto
39175.6 26024.8 lineto
39231.9 25968.5 lineto
39288.1 25856 lineto
39344.4 25631.1 lineto
39344.4 25349.8 lineto
39288.1 25124.9 lineto
39231.9 25012.4 lineto
39175.6 24956.1 lineto
39063.1 24899.9 lineto
38950.7 24899.9 lineto
38838.2 24956.1 lineto
38781.9 25012.4 lineto
38725.7 25124.9 lineto
38669.4 25349.8 lineto
38669.4 25631.1 lineto
38725.7 25856 lineto
38781.9 25968.5 lineto
38838.2 26024.8 lineto
38950.7 26081 lineto
stroke
newpath
39850.5 25012.4 moveto
39906.8 24956.1 lineto
39850.5 24899.9 lineto
39794.3 24956.1 lineto
39850.5 25012.4 lineto
39850.5 24899.9 lineto
stroke
newpath
40469.2 24899.9 moveto
40694.2 24899.9 lineto
40806.7 24956.1 lineto
40862.9 25012.4 lineto
40975.4 25181.1 lineto
41031.6 25406.1 lineto
41031.6 25856 lineto
40975.4 25968.5 lineto
40919.2 26024.8 lineto
40806.7 26081 lineto
40581.7 26081 lineto
40469.2 26024.8 lineto
40413 25968.5 lineto
40356.7 25856 lineto
40356.7 25574.8 lineto
40413 25462.3 lineto
40469.2 25406.1 lineto
40581.7 25349.8 lineto
40806.7 25349.8 lineto
40919.2 25406.1 lineto
40975.4 25462.3 lineto
41031.6 25574.8 lineto
stroke
newpath
41762.8 26081 moveto
41875.3 26081 lineto
41987.8 26024.8 lineto
42044 25968.5 lineto
42100.3 25856 lineto
42156.5 25631.1 lineto
42156.5 25349.8 lineto
42100.3 25124.9 lineto
42044 25012.4 lineto
41987.8 24956.1 lineto
41875.3 24899.9 lineto
41762.8 24899.9 lineto
41650.3 24956.1 lineto
41594.1 25012.4 lineto
41537.8 25124.9 lineto
41481.6 25349.8 lineto
41481.6 25631.1 lineto
41537.8 25856 lineto
41594.1 25968.5 lineto
41650.3 26024.8 lineto
41762.8 26081 lineto
stroke
newpath
42662.7 24899.9 moveto
42662.7 25687.3 lineto
stroke
newpath
42662.7 25574.8 moveto
42718.9 25631.1 lineto
42831.4 25687.3 lineto
43000.1 25687.3 lineto
43112.6 25631.1 lineto
43168.9 25518.6 lineto
43168.9 24899.9 lineto
stroke
newpath
43168.9 25518.6 moveto
43225.1 25631.1 lineto
43337.6 25687.3 lineto
43506.3 25687.3 lineto
43618.8 25631.1 lineto
43675.1 25518.6 lineto
43675.1 24899.9 lineto
stroke
newpath
44237.5 24899.9 moveto
44237.5 25687.3 lineto
stroke
newpath
44237.5 25574.8 moveto
44293.7 25631.1 lineto
44406.2 25687.3 lineto
44574.9 25687.3 lineto
44687.4 25631.1 lineto
44743.7 25518.6 lineto
44743.7 24899.9 lineto
stroke
newpath
44743.7 25518.6 moveto
44799.9 25631.1 lineto
44912.4 25687.3 lineto
45081.1 25687.3 lineto
45193.6 25631.1 lineto
45249.9 25518.6 lineto
45249.9 24899.9 lineto
stroke
newpath
47555.8 26137.2 moveto
46543.5 24618.7 lineto
stroke
newpath
49074.4 26081 moveto
49186.9 26081 lineto
49299.4 26024.8 lineto
49355.6 25968.5 lineto
49411.8 25856 lineto
49468.1 25631.1 lineto
49468.1 25349.8 lineto
49411.8 25124.9 lineto
49355.6 25012.4 lineto
49299.4 24956.1 lineto
49186.9 24899.9 lineto
49074.4 24899.9 lineto
48961.9 24956.1 lineto
48905.7 25012.4 lineto
48849.4 25124.9 lineto
48793.2 25349.8 lineto
48793.2 25631.1 lineto
48849.4 25856 lineto
48905.7 25968.5 lineto
48961.9 26024.8 lineto
49074.4 26081 lineto
stroke
newpath
49974.3 25012.4 moveto
50030.5 24956.1 lineto
49974.3 24899.9 lineto
49918 24956.1 lineto
49974.3 25012.4 lineto
49974.3 24899.9 lineto
stroke
newpath
50761.7 26081 moveto
50874.2 26081 lineto
50986.6 26024.8 lineto
51042.9 25968.5 lineto
51099.1 25856 lineto
51155.4 25631.1 lineto
51155.4 25349.8 lineto
51099.1 25124.9 lineto
51042.9 25012.4 lineto
50986.6 24956.1 lineto
50874.2 24899.9 lineto
50761.7 24899.9 lineto
50649.2 24956.1 lineto
50592.9 25012.4 lineto
50536.7 25124.9 lineto
50480.5 25349.8 lineto
50480.5 25631.1 lineto
50536.7 25856 lineto
50592.9 25968.5 lineto
50649.2 26024.8 lineto
50761.7 26081 lineto
stroke
newpath
51549.1 26081 moveto
52280.2 26081 lineto
51886.5 25631.1 lineto
52055.3 25631.1 lineto
52167.7 25574.8 lineto
52224 25518.6 lineto
52280.2 25406.1 lineto
52280.2 25124.9 lineto
52224 25012.4 lineto
52167.7 24956.1 lineto
52055.3 24899.9 lineto
51717.8 24899.9 lineto
51605.3 24956.1 lineto
51549.1 25012.4 lineto
stroke
newpath
53348.9 26081 moveto
52786.4 26081 lineto
52730.2 25518.6 lineto
52786.4 25574.8 lineto
52898.9 25631.1 lineto
53180.1 25631.1 lineto
53292.6 25574.8 lineto
53348.9 25518.6 lineto
53405.1 25406.1 lineto
53405.1 25124.9 lineto
53348.9 25012.4 lineto
53292.6 24956.1 lineto
53180.1 24899.9 lineto
52898.9 24899.9 lineto
52786.4 24956.1 lineto
52730.2 25012.4 lineto
stroke
newpath
53855 26081 moveto
53855 25856 lineto
stroke
newpath
54305 26081 moveto
54305 25856 lineto
stroke
newpath
56048.5 24450 moveto
55992.3 24506.2 lineto
55879.8 24674.9 lineto
55823.5 24787.4 lineto
55767.3 24956.1 lineto
55711.1 25237.4 lineto
55711.1 25462.3 lineto
55767.3 25743.5 lineto
55823.5 25912.3 lineto
55879.8 26024.8 lineto
55992.3 26193.5 lineto
56048.5 26249.7 lineto
stroke
newpath
56667.2 25574.8 moveto
56554.7 25631.1 lineto
56498.5 25687.3 lineto
56442.2 25799.8 lineto
56442.2 25856 lineto
56498.5 25968.5 lineto
56554.7 26024.8 lineto
56667.2 26081 lineto
56892.2 26081 lineto
57004.6 26024.8 lineto
57060.9 25968.5 lineto
57117.1 25856 lineto
57117.1 25799.8 lineto
57060.9 25687.3 lineto
57004.6 25631.1 lineto
56892.2 25574.8 lineto
56667.2 25574.8 lineto
56554.7 25518.6 lineto
56498.5 25462.3 lineto
56442.2 25349.8 lineto
56442.2 25124.9 lineto
56498.5 25012.4 lineto
56554.7 24956.1 lineto
56667.2 24899.9 lineto
56892.2 24899.9 lineto
57004.6 24956.1 lineto
57060.9 25012.4 lineto
57117.1 25124.9 lineto
57117.1 25349.8 lineto
57060.9 25462.3 lineto
57004.6 25518.6 lineto
56892.2 25574.8 lineto
stroke
newpath
58523.2 24899.9 moveto
58523.2 26081 lineto
stroke
newpath
59029.4 24899.9 moveto
59029.4 25518.6 lineto
58973.1 25631.1 lineto
58860.7 25687.3 lineto
58691.9 25687.3 lineto
58579.4 25631.1 lineto
58523.2 25574.8 lineto
stroke
newpath
59760.6 24899.9 moveto
59648.1 24956.1 lineto
59591.8 25012.4 lineto
59535.6 25124.9 lineto
59535.6 25462.3 lineto
59591.8 25574.8 lineto
59648.1 25631.1 lineto
59760.6 25687.3 lineto
59929.3 25687.3 lineto
60041.8 25631.1 lineto
60098 25574.8 lineto
60154.3 25462.3 lineto
60154.3 25124.9 lineto
60098 25012.4 lineto
60041.8 24956.1 lineto
59929.3 24899.9 lineto
59760.6 24899.9 lineto
stroke
newpath
60829.2 24899.9 moveto
60716.7 24956.1 lineto
60660.4 25068.6 lineto
60660.4 26081 lineto
stroke
newpath
61729.1 24956.1 moveto
61616.6 24899.9 lineto
61391.6 24899.9 lineto
61279.1 24956.1 lineto
61222.9 25068.6 lineto
61222.9 25518.6 lineto
61279.1 25631.1 lineto
61391.6 25687.3 lineto
61616.6 25687.3 lineto
61729.1 25631.1 lineto
61785.3 25518.6 lineto
61785.3 25406.1 lineto
61222.9 25293.6 lineto
stroke
newpath
62235.2 24956.1 moveto
62347.7 24899.9 lineto
62572.7 24899.9 lineto
62685.2 24956.1 lineto
62741.4 25068.6 lineto
62741.4 25124.9 lineto
62685.2 25237.4 lineto
62572.7 25293.6 lineto
62404 25293.6 lineto
62291.5 25349.8 lineto
62235.2 25462.3 lineto
62235.2 25518.6 lineto
62291.5 25631.1 lineto
62404 25687.3 lineto
62572.7 25687.3 lineto
62685.2 25631.1 lineto
stroke
newpath
63135.1 24450 moveto
63191.4 24506.2 lineto
63303.9 24674.9 lineto
63360.1 24787.4 lineto
63416.3 24956.1 lineto
63472.6 25237.4 lineto
63472.6 25462.3 lineto
63416.3 25743.5 lineto
63360.1 25912.3 lineto
63303.9 26024.8 lineto
63191.4 26193.5 lineto
63135.1 26249.7 lineto
stroke
newpath
36948.5 24199.9 moveto
37598 23550.4 lineto
stroke
newpath
37598 24199.9 moveto
36948.5 23550.4 lineto
stroke
newpath
37273.3 24199.9 moveto
37273.3 23550.4 lineto
stroke
newpath
36948.5 23875.2 moveto
37598 23875.2 lineto
stroke
0 0 0 setrgbcolor
0 0 0 setrgbcolor
newpath
39344.4 23340.8 moveto
38669.4 23340.8 lineto
stroke
newpath
39006.9 23340.8 moveto
39006.9 24521.9 lineto
38894.4 24353.2 lineto
38781.9 24240.7 lineto
38669.4 24184.5 lineto
stroke
newpath
39850.5 23453.3 moveto
39906.8 23397.1 lineto
39850.5 23340.8 lineto
39794.3 23397.1 lineto
39850.5 23453.3 lineto
39850.5 23340.8 lineto
stroke
newpath
40637.9 24521.9 moveto
40750.4 24521.9 lineto
40862.9 24465.7 lineto
40919.2 24409.5 lineto
40975.4 24297 lineto
41031.6 24072 lineto
41031.6 23790.8 lineto
40975.4 23565.8 lineto
40919.2 23453.3 lineto
40862.9 23397.1 lineto
40750.4 23340.8 lineto
40637.9 23340.8 lineto
40525.5 23397.1 lineto
40469.2 23453.3 lineto
40413 23565.8 lineto
40356.7 23790.8 lineto
40356.7 24072 lineto
40413 24297 lineto
40469.2 24409.5 lineto
40525.5 24465.7 lineto
40637.9 24521.9 lineto
stroke
newpath
41762.8 24521.9 moveto
41875.3 24521.9 lineto
41987.8 24465.7 lineto
42044 24409.5 lineto
42100.3 24297 lineto
42156.5 24072 lineto
42156.5 23790.8 lineto
42100.3 23565.8 lineto
42044 23453.3 lineto
41987.8 23397.1 lineto
41875.3 23340.8 lineto
41762.8 23340.8 lineto
41650.3 23397.1 lineto
41594.1 23453.3 lineto
41537.8 23565.8 lineto
41481.6 23790.8 lineto
41481.6 24072 lineto
41537.8 24297 lineto
41594.1 24409.5 lineto
41650.3 24465.7 lineto
41762.8 24521.9 lineto
stroke
newpath
42662.7 23340.8 moveto
42662.7 24128.2 lineto
stroke
newpath
42662.7 24015.8 moveto
42718.9 24072 lineto
42831.4 24128.2 lineto
43000.1 24128.2 lineto
43112.6 24072 lineto
43168.9 23959.5 lineto
43168.9 23340.8 lineto
stroke
newpath
43168.9 23959.5 moveto
43225.1 24072 lineto
43337.6 24128.2 lineto
43506.3 24128.2 lineto
43618.8 24072 lineto
43675.1 23959.5 lineto
43675.1 23340.8 lineto
stroke
newpath
44237.5 23340.8 moveto
44237.5 24128.2 lineto
stroke
newpath
44237.5 24015.8 moveto
44293.7 24072 lineto
44406.2 24128.2 lineto
44574.9 24128.2 lineto
44687.4 24072 lineto
44743.7 23959.5 lineto
44743.7 23340.8 lineto
stroke
newpath
44743.7 23959.5 moveto
44799.9 24072 lineto
44912.4 24128.2 lineto
45081.1 24128.2 lineto
45193.6 24072 lineto
45249.9 23959.5 lineto
45249.9 23340.8 lineto
stroke
newpath
47555.8 24578.2 moveto
46543.5 23059.6 lineto
stroke
newpath
49074.4 24521.9 moveto
49186.9 24521.9 lineto
49299.4 24465.7 lineto
49355.6 24409.5 lineto
49411.8 24297 lineto
49468.1 24072 lineto
49468.1 23790.8 lineto
49411.8 23565.8 lineto
49355.6 23453.3 lineto
49299.4 23397.1 lineto
49186.9 23340.8 lineto
49074.4 23340.8 lineto
48961.9 23397.1 lineto
48905.7 23453.3 lineto
48849.4 23565.8 lineto
48793.2 23790.8 lineto
48793.2 24072 lineto
48849.4 24297 lineto
48905.7 24409.5 lineto
48961.9 24465.7 lineto
49074.4 24521.9 lineto
stroke
newpath
49974.3 23453.3 moveto
50030.5 23397.1 lineto
49974.3 23340.8 lineto
49918 23397.1 lineto
49974.3 23453.3 lineto
49974.3 23340.8 lineto
stroke
newpath
50761.7 24521.9 moveto
50874.2 24521.9 lineto
50986.6 24465.7 lineto
51042.9 24409.5 lineto
51099.1 24297 lineto
51155.4 24072 lineto
51155.4 23790.8 lineto
51099.1 23565.8 lineto
51042.9 23453.3 lineto
50986.6 23397.1 lineto
50874.2 23340.8 lineto
50761.7 23340.8 lineto
50649.2 23397.1 lineto
50592.9 23453.3 lineto
50536.7 23565.8 lineto
50480.5 23790.8 lineto
50480.5 24072 lineto
50536.7 24297 lineto
50592.9 24409.5 lineto
50649.2 24465.7 lineto
50761.7 24521.9 lineto
stroke
newpath
51549.1 24521.9 moveto
52280.2 24521.9 lineto
51886.5 24072 lineto
52055.3 24072 lineto
52167.7 24015.8 lineto
52224 23959.5 lineto
52280.2 23847 lineto
52280.2 23565.8 lineto
52224 23453.3 lineto
52167.7 23397.1 lineto
52055.3 23340.8 lineto
51717.8 23340.8 lineto
51605.3 23397.1 lineto
51549.1 23453.3 lineto
stroke
newpath
52842.7 23340.8 moveto
53067.6 23340.8 lineto
53180.1 23397.1 lineto
53236.4 23453.3 lineto
53348.9 23622.1 lineto
53405.1 23847 lineto
53405.1 24297 lineto
53348.9 24409.5 lineto
53292.6 24465.7 lineto
53180.1 24521.9 lineto
52955.2 24521.9 lineto
52842.7 24465.7 lineto
52786.4 24409.5 lineto
52730.2 24297 lineto
52730.2 24015.8 lineto
52786.4 23903.3 lineto
52842.7 23847 lineto
52955.2 23790.8 lineto
53180.1 23790.8 lineto
53292.6 23847 lineto
53348.9 23903.3 lineto
53405.1 24015.8 lineto
stroke
newpath
53855 24521.9 moveto
53855 24297 lineto
stroke
newpath
54305 24521.9 moveto
54305 24297 lineto
stroke
newpath
56048.5 22890.9 moveto
55992.3 22947.1 lineto
55879.8 23115.9 lineto
55823.5 23228.4 lineto
55767.3 23397.1 lineto
55711.1 23678.3 lineto
55711.1 23903.3 lineto
55767.3 24184.5 lineto
55823.5 24353.2 lineto
55879.8 24465.7 lineto
55992.3 24634.4 lineto
56048.5 24690.7 lineto
stroke
newpath
57117.1 23340.8 moveto
56442.2 23340.8 lineto
stroke
newpath
56779.7 23340.8 moveto
56779.7 24521.9 lineto
56667.2 24353.2 lineto
56554.7 24240.7 lineto
56442.2 24184.5 lineto
stroke
newpath
57510.8 24521.9 moveto
58242 24521.9 lineto
57848.3 24072 lineto
58017 24072 lineto
58129.5 24015.8 lineto
58185.7 23959.5 lineto
58242 23847 lineto
58242 23565.8 lineto
58185.7 23453.3 lineto
58129.5 23397.1 lineto
58017 23340.8 lineto
57679.6 23340.8 lineto
57567.1 23397.1 lineto
57510.8 23453.3 lineto
stroke
newpath
59648.1 23340.8 moveto
59648.1 24521.9 lineto
stroke
newpath
60154.3 23340.8 moveto
60154.3 23959.5 lineto
60098 24072 lineto
59985.5 24128.2 lineto
59816.8 24128.2 lineto
59704.3 24072 lineto
59648.1 24015.8 lineto
stroke
newpath
60885.4 23340.8 moveto
60772.9 23397.1 lineto
60716.7 23453.3 lineto
60660.4 23565.8 lineto
60660.4 23903.3 lineto
60716.7 24015.8 lineto
60772.9 24072 lineto
60885.4 24128.2 lineto
61054.1 24128.2 lineto
61166.6 24072 lineto
61222.9 24015.8 lineto
61279.1 23903.3 lineto
61279.1 23565.8 lineto
61222.9 23453.3 lineto
61166.6 23397.1 lineto
61054.1 23340.8 lineto
60885.4 23340.8 lineto
stroke
newpath
61954 23340.8 moveto
61841.5 23397.1 lineto
61785.3 23509.6 lineto
61785.3 24521.9 lineto
stroke
newpath
62853.9 23397.1 moveto
62741.4 23340.8 lineto
62516.5 23340.8 lineto
62404 23397.1 lineto
62347.7 23509.6 lineto
62347.7 23959.5 lineto
62404 24072 lineto
62516.5 24128.2 lineto
62741.4 24128.2 lineto
62853.9 24072 lineto
62910.2 23959.5 lineto
62910.2 23847 lineto
62347.7 23734.5 lineto
stroke
newpath
63360.1 23397.1 moveto
63472.6 23340.8 lineto
63697.6 23340.8 lineto
63810 23397.1 lineto
63866.3 23509.6 lineto
63866.3 23565.8 lineto
63810 23678.3 lineto
63697.6 23734.5 lineto
63528.8 23734.5 lineto
63416.3 23790.8 lineto
63360.1 23903.3 lineto
63360.1 23959.5 lineto
63416.3 24072 lineto
63528.8 24128.2 lineto
63697.6 24128.2 lineto
63810 24072 lineto
stroke
newpath
64260 22890.9 moveto
64316.2 22947.1 lineto
64428.7 23115.9 lineto
64485 23228.4 lineto
64541.2 23397.1 lineto
64597.4 23678.3 lineto
64597.4 23903.3 lineto
64541.2 24184.5 lineto
64485 24353.2 lineto
64428.7 24465.7 lineto
64316.2 24634.4 lineto
64260 24690.7 lineto
stroke
newpath
36938.1 22646 moveto
37598 21986.2 lineto
stroke
newpath
37598 22646 moveto
36938.1 21986.2 lineto
stroke
newpath
37501.4 22082.8 moveto
37501.4 22549.4 lineto
37034.8 22549.4 lineto
37034.8 22082.8 lineto
37501.4 22082.8 lineto
poly0
0 0 0 setrgbcolor
0 0 0 setrgbcolor
newpath
39344.4 21781.8 moveto
38669.4 21781.8 lineto
stroke
newpath
39006.9 21781.8 moveto
39006.9 22962.9 lineto
38894.4 22794.2 lineto
38781.9 22681.7 lineto
38669.4 22625.4 lineto
stroke
newpath
39850.5 21894.3 moveto
39906.8 21838 lineto
39850.5 21781.8 lineto
39794.3 21838 lineto
39850.5 21894.3 lineto
39850.5 21781.8 lineto
stroke
newpath
40637.9 22962.9 moveto
40750.4 22962.9 lineto
40862.9 22906.6 lineto
40919.2 22850.4 lineto
40975.4 22737.9 lineto
41031.6 22512.9 lineto
41031.6 22231.7 lineto
40975.4 22006.8 lineto
40919.2 21894.3 lineto
40862.9 21838 lineto
40750.4 21781.8 lineto
40637.9 21781.8 lineto
40525.5 21838 lineto
40469.2 21894.3 lineto
40413 22006.8 lineto
40356.7 22231.7 lineto
40356.7 22512.9 lineto
40413 22737.9 lineto
40469.2 22850.4 lineto
40525.5 22906.6 lineto
40637.9 22962.9 lineto
stroke
newpath
41481.6 22850.4 moveto
41537.8 22906.6 lineto
41650.3 22962.9 lineto
41931.5 22962.9 lineto
42044 22906.6 lineto
42100.3 22850.4 lineto
42156.5 22737.9 lineto
42156.5 22625.4 lineto
42100.3 22456.7 lineto
41425.3 21781.8 lineto
42156.5 21781.8 lineto
stroke
newpath
42662.7 21781.8 moveto
42662.7 22569.2 lineto
stroke
newpath
42662.7 22456.7 moveto
42718.9 22512.9 lineto
42831.4 22569.2 lineto
43000.1 22569.2 lineto
43112.6 22512.9 lineto
43168.9 22400.5 lineto
43168.9 21781.8 lineto
stroke
newpath
43168.9 22400.5 moveto
43225.1 22512.9 lineto
43337.6 22569.2 lineto
43506.3 22569.2 lineto
43618.8 22512.9 lineto
43675.1 22400.5 lineto
43675.1 21781.8 lineto
stroke
newpath
44237.5 21781.8 moveto
44237.5 22569.2 lineto
stroke
newpath
44237.5 22456.7 moveto
44293.7 22512.9 lineto
44406.2 22569.2 lineto
44574.9 22569.2 lineto
44687.4 22512.9 lineto
44743.7 22400.5 lineto
44743.7 21781.8 lineto
stroke
newpath
44743.7 22400.5 moveto
44799.9 22512.9 lineto
44912.4 22569.2 lineto
45081.1 22569.2 lineto
45193.6 22512.9 lineto
45249.9 22400.5 lineto
45249.9 21781.8 lineto
stroke
newpath
47555.8 23019.1 moveto
46543.5 21500.6 lineto
stroke
newpath
49074.4 22962.9 moveto
49186.9 22962.9 lineto
49299.4 22906.6 lineto
49355.6 22850.4 lineto
49411.8 22737.9 lineto
49468.1 22512.9 lineto
49468.1 22231.7 lineto
49411.8 22006.8 lineto
49355.6 21894.3 lineto
49299.4 21838 lineto
49186.9 21781.8 lineto
49074.4 21781.8 lineto
48961.9 21838 lineto
48905.7 21894.3 lineto
48849.4 22006.8 lineto
48793.2 22231.7 lineto
48793.2 22512.9 lineto
48849.4 22737.9 lineto
48905.7 22850.4 lineto
48961.9 22906.6 lineto
49074.4 22962.9 lineto
stroke
newpath
49974.3 21894.3 moveto
50030.5 21838 lineto
49974.3 21781.8 lineto
49918 21838 lineto
49974.3 21894.3 lineto
49974.3 21781.8 lineto
stroke
newpath
50761.7 22962.9 moveto
50874.2 22962.9 lineto
50986.6 22906.6 lineto
51042.9 22850.4 lineto
51099.1 22737.9 lineto
51155.4 22512.9 lineto
51155.4 22231.7 lineto
51099.1 22006.8 lineto
51042.9 21894.3 lineto
50986.6 21838 lineto
50874.2 21781.8 lineto
50761.7 21781.8 lineto
50649.2 21838 lineto
50592.9 21894.3 lineto
50536.7 22006.8 lineto
50480.5 22231.7 lineto
50480.5 22512.9 lineto
50536.7 22737.9 lineto
50592.9 22850.4 lineto
50649.2 22906.6 lineto
50761.7 22962.9 lineto
stroke
newpath
52167.7 22569.2 moveto
52167.7 21781.8 lineto
stroke
newpath
51886.5 23019.1 moveto
51605.3 22175.5 lineto
52336.5 22175.5 lineto
stroke
newpath
53011.4 22962.9 moveto
53123.9 22962.9 lineto
53236.4 22906.6 lineto
53292.6 22850.4 lineto
53348.9 22737.9 lineto
53405.1 22512.9 lineto
53405.1 22231.7 lineto
53348.9 22006.8 lineto
53292.6 21894.3 lineto
53236.4 21838 lineto
53123.9 21781.8 lineto
53011.4 21781.8 lineto
52898.9 21838 lineto
52842.7 21894.3 lineto
52786.4 22006.8 lineto
52730.2 22231.7 lineto
52730.2 22512.9 lineto
52786.4 22737.9 lineto
52842.7 22850.4 lineto
52898.9 22906.6 lineto
53011.4 22962.9 lineto
stroke
newpath
53855 22962.9 moveto
53855 22737.9 lineto
stroke
newpath
54305 22962.9 moveto
54305 22737.9 lineto
stroke
newpath
56048.5 21331.8 moveto
55992.3 21388.1 lineto
55879.8 21556.8 lineto
55823.5 21669.3 lineto
55767.3 21838 lineto
55711.1 22119.2 lineto
55711.1 22344.2 lineto
55767.3 22625.4 lineto
55823.5 22794.2 lineto
55879.8 22906.6 lineto
55992.3 23075.4 lineto
56048.5 23131.6 lineto
stroke
newpath
57117.1 21781.8 moveto
56442.2 21781.8 lineto
stroke
newpath
56779.7 21781.8 moveto
56779.7 22962.9 lineto
56667.2 22794.2 lineto
56554.7 22681.7 lineto
56442.2 22625.4 lineto
stroke
newpath
58129.5 22962.9 moveto
57904.5 22962.9 lineto
57792 22906.6 lineto
57735.8 22850.4 lineto
57623.3 22681.7 lineto
57567.1 22456.7 lineto
57567.1 22006.8 lineto
57623.3 21894.3 lineto
57679.6 21838 lineto
57792 21781.8 lineto
58017 21781.8 lineto
58129.5 21838 lineto
58185.7 21894.3 lineto
58242 22006.8 lineto
58242 22288 lineto
58185.7 22400.5 lineto
58129.5 22456.7 lineto
58017 22512.9 lineto
57792 22512.9 lineto
57679.6 22456.7 lineto
57623.3 22400.5 lineto
57567.1 22288 lineto
stroke
newpath
59648.1 21781.8 moveto
59648.1 22962.9 lineto
stroke
newpath
60154.3 21781.8 moveto
60154.3 22400.5 lineto
60098 22512.9 lineto
59985.5 22569.2 lineto
59816.8 22569.2 lineto
59704.3 22512.9 lineto
59648.1 22456.7 lineto
stroke
newpath
60885.4 21781.8 moveto
60772.9 21838 lineto
60716.7 21894.3 lineto
60660.4 22006.8 lineto
60660.4 22344.2 lineto
60716.7 22456.7 lineto
60772.9 22512.9 lineto
60885.4 22569.2 lineto
61054.1 22569.2 lineto
61166.6 22512.9 lineto
61222.9 22456.7 lineto
61279.1 22344.2 lineto
61279.1 22006.8 lineto
61222.9 21894.3 lineto
61166.6 21838 lineto
61054.1 21781.8 lineto
60885.4 21781.8 lineto
stroke
newpath
61954 21781.8 moveto
61841.5 21838 lineto
61785.3 21950.5 lineto
61785.3 22962.9 lineto
stroke
newpath
62853.9 21838 moveto
62741.4 21781.8 lineto
62516.5 21781.8 lineto
62404 21838 lineto
62347.7 21950.5 lineto
62347.7 22400.5 lineto
62404 22512.9 lineto
62516.5 22569.2 lineto
62741.4 22569.2 lineto
62853.9 22512.9 lineto
62910.2 22400.5 lineto
62910.2 22288 lineto
62347.7 22175.5 lineto
stroke
newpath
63360.1 21838 moveto
63472.6 21781.8 lineto
63697.6 21781.8 lineto
63810 21838 lineto
63866.3 21950.5 lineto
63866.3 22006.8 lineto
63810 22119.2 lineto
63697.6 22175.5 lineto
63528.8 22175.5 lineto
63416.3 22231.7 lineto
63360.1 22344.2 lineto
63360.1 22400.5 lineto
63416.3 22512.9 lineto
63528.8 22569.2 lineto
63697.6 22569.2 lineto
63810 22512.9 lineto
stroke
newpath
64260 21331.8 moveto
64316.2 21388.1 lineto
64428.7 21556.8 lineto
64485 21669.3 lineto
64541.2 21838 lineto
64597.4 22119.2 lineto
64597.4 22344.2 lineto
64541.2 22625.4 lineto
64485 22794.2 lineto
64428.7 22906.6 lineto
64316.2 23075.4 lineto
64260 23131.6 lineto
stroke
showpage
grestore
%%EOF
