EESchema Schematic File Version 4
LIBS:Wemos_SendToIR-cache
EELAYER 26 0
EELAYER END
$Descr A4 11693 8268
encoding utf-8
Sheet 1 1
Title ""
Date ""
Rev ""
Comp ""
Comment1 ""
Comment2 ""
Comment3 ""
Comment4 ""
$EndDescr
$Comp
L Wemos_SendToIR-rescue:WeMos_mini-wemos_mini U1
U 1 1 5D42DAD7
P 9050 1850
F 0 "U1" H 9050 2593 60  0000 C CNN
F 1 "WeMos_mini" H 9050 2487 60  0000 C CNN
F 2 "wemos_d1_mini:D1_mini_board" H 9600 1150 60  0001 C CNN
F 3 "http://www.wemos.cc/Products/d1_mini.html" H 9050 2381 60  0000 C CNN
	1    9050 1850
	1    0    0    -1  
$EndComp
$Comp
L Device:LED_ALT D4
U 1 1 5D42E360
P 4150 2050
F 0 "D4" V 4189 1932 50  0000 R CNN
F 1 "LED_ALT" V 4098 1932 50  0000 R CNN
F 2 "LED_THT:LED_D5.0mm" H 4150 2050 50  0001 C CNN
F 3 "~" H 4150 2050 50  0001 C CNN
	1    4150 2050
	0    -1   -1   0   
$EndComp
$Comp
L Device:LED_ALT D3
U 1 1 5D42F029
P 3900 2050
F 0 "D3" V 3939 1932 50  0000 R CNN
F 1 "LED_ALT" V 3848 1932 50  0000 R CNN
F 2 "LED_THT:LED_D5.0mm" H 3900 2050 50  0001 C CNN
F 3 "~" H 3900 2050 50  0001 C CNN
	1    3900 2050
	0    -1   -1   0   
$EndComp
$Comp
L Device:LED_ALT D2
U 1 1 5D42FF31
P 3650 2050
F 0 "D2" V 3689 1932 50  0000 R CNN
F 1 "LED_ALT" V 3598 1932 50  0000 R CNN
F 2 "LED_THT:LED_D5.0mm" H 3650 2050 50  0001 C CNN
F 3 "~" H 3650 2050 50  0001 C CNN
	1    3650 2050
	0    -1   -1   0   
$EndComp
$Comp
L Device:LED_ALT D1
U 1 1 5D4302F9
P 3450 2050
F 0 "D1" V 3489 1932 50  0000 R CNN
F 1 "LED_ALT" V 3398 1932 50  0000 R CNN
F 2 "LED_THT:LED_D5.0mm" H 3450 2050 50  0001 C CNN
F 3 "~" H 3450 2050 50  0001 C CNN
	1    3450 2050
	0    -1   -1   0   
$EndComp
$Comp
L Device:R R1
U 1 1 5D4306F5
P 3450 1750
F 0 "R1" H 3520 1796 50  0000 L CNN
F 1 "R" H 3520 1705 50  0000 L CNN
F 2 "Resistor_THT:R_Axial_DIN0309_L9.0mm_D3.2mm_P12.70mm_Horizontal" V 3380 1750 50  0001 C CNN
F 3 "~" H 3450 1750 50  0001 C CNN
	1    3450 1750
	1    0    0    -1  
$EndComp
$Comp
L Device:R R2
U 1 1 5D4309FB
P 3650 1750
F 0 "R2" H 3720 1796 50  0000 L CNN
F 1 "R" H 3720 1705 50  0000 L CNN
F 2 "Resistor_THT:R_Axial_DIN0309_L9.0mm_D3.2mm_P12.70mm_Horizontal" V 3580 1750 50  0001 C CNN
F 3 "~" H 3650 1750 50  0001 C CNN
	1    3650 1750
	1    0    0    -1  
$EndComp
$Comp
L Device:R R3
U 1 1 5D430B50
P 3900 1750
F 0 "R3" H 3970 1796 50  0000 L CNN
F 1 "R" H 3970 1705 50  0000 L CNN
F 2 "Resistor_THT:R_Axial_DIN0309_L9.0mm_D3.2mm_P12.70mm_Horizontal" V 3830 1750 50  0001 C CNN
F 3 "~" H 3900 1750 50  0001 C CNN
	1    3900 1750
	1    0    0    -1  
$EndComp
$Comp
L Device:R R4
U 1 1 5D430CB0
P 4150 1750
F 0 "R4" H 4220 1796 50  0000 L CNN
F 1 "R" H 4220 1705 50  0000 L CNN
F 2 "Resistor_THT:R_Axial_DIN0309_L9.0mm_D3.2mm_P12.70mm_Horizontal" V 4080 1750 50  0001 C CNN
F 3 "~" H 4150 1750 50  0001 C CNN
	1    4150 1750
	1    0    0    -1  
$EndComp
$Comp
L power:+5V #PWR03
U 1 1 5D430E43
P 3300 1600
F 0 "#PWR03" H 3300 1450 50  0001 C CNN
F 1 "+5V" H 3315 1773 50  0000 C CNN
F 2 "" H 3300 1600 50  0001 C CNN
F 3 "" H 3300 1600 50  0001 C CNN
	1    3300 1600
	1    0    0    -1  
$EndComp
Wire Wire Line
	4150 1600 3900 1600
Wire Wire Line
	3300 1600 3450 1600
Wire Wire Line
	3450 1600 3650 1600
Connection ~ 3450 1600
Wire Wire Line
	3650 1600 3900 1600
Connection ~ 3650 1600
Connection ~ 3900 1600
$Comp
L Transistor_BJT:2N2219 Q1
U 1 1 5D431900
P 3250 2400
F 0 "Q1" H 3440 2446 50  0000 L CNN
F 1 "2N2219" H 3440 2355 50  0000 L CNN
F 2 "Package_TO_SOT_THT:TO-92" H 3450 2325 50  0001 L CIN
F 3 "http://www.onsemi.com/pub_link/Collateral/2N2219-D.PDF" H 3250 2400 50  0001 L CNN
	1    3250 2400
	1    0    0    -1  
$EndComp
$Comp
L power:GND #PWR04
U 1 1 5D43253D
P 3350 2600
F 0 "#PWR04" H 3350 2350 50  0001 C CNN
F 1 "GND" H 3355 2427 50  0000 C CNN
F 2 "" H 3350 2600 50  0001 C CNN
F 3 "" H 3350 2600 50  0001 C CNN
	1    3350 2600
	1    0    0    -1  
$EndComp
Wire Wire Line
	3350 2200 3450 2200
Wire Wire Line
	3650 2200 3900 2200
Wire Wire Line
	4150 2200 3900 2200
Connection ~ 3900 2200
Wire Wire Line
	3650 2200 3450 2200
Connection ~ 3650 2200
Connection ~ 3450 2200
Text GLabel 3050 2400 0    50   Input ~ 0
OUR_Ir
$Comp
L Connector:Conn_01x03_Female IN_IR1
U 1 1 5D4343C4
P 6000 1750
F 0 "IN_IR1" H 6028 1776 50  0000 L CNN
F 1 "Conn_01x03_Female" H 6028 1685 50  0000 L CNN
F 2 "Connector_PinSocket_2.54mm:PinSocket_1x03_P2.54mm_Vertical" H 6000 1750 50  0001 C CNN
F 3 "~" H 6000 1750 50  0001 C CNN
	1    6000 1750
	1    0    0    -1  
$EndComp
$Comp
L power:GND #PWR010
U 1 1 5D4349C6
P 5700 1750
F 0 "#PWR010" H 5700 1500 50  0001 C CNN
F 1 "GND" H 5705 1577 50  0000 C CNN
F 2 "" H 5700 1750 50  0001 C CNN
F 3 "" H 5700 1750 50  0001 C CNN
	1    5700 1750
	0    1    1    0   
$EndComp
$Comp
L power:+3.3V #PWR09
U 1 1 5D434DB0
P 5800 1650
F 0 "#PWR09" H 5800 1500 50  0001 C CNN
F 1 "+3.3V" H 5815 1823 50  0000 C CNN
F 2 "" H 5800 1650 50  0001 C CNN
F 3 "" H 5800 1650 50  0001 C CNN
	1    5800 1650
	1    0    0    -1  
$EndComp
Text GLabel 5800 1850 0    50   Input ~ 0
IN_IR
Text GLabel 8450 1700 0    50   Input ~ 0
IN_IR
Text GLabel 8450 1900 0    50   Input ~ 0
OUR_Ir
Wire Wire Line
	8450 1900 8550 1900
Wire Wire Line
	8550 1700 8450 1700
Wire Wire Line
	5800 1750 5700 1750
$Comp
L Connector:USB_B_Micro J1
U 1 1 5D4368FC
P 1250 1250
F 0 "J1" H 1307 1717 50  0000 C CNN
F 1 "USB_B_Micro" H 1307 1626 50  0000 C CNN
F 2 "Connector_USB:USB_Micro-B_Amphenol_10103594-0001LF_Horizontal" H 1400 1200 50  0001 C CNN
F 3 "~" H 1400 1200 50  0001 C CNN
	1    1250 1250
	1    0    0    -1  
$EndComp
$Comp
L power:+5V #PWR02
U 1 1 5D4377BA
P 1600 1050
F 0 "#PWR02" H 1600 900 50  0001 C CNN
F 1 "+5V" H 1615 1223 50  0000 C CNN
F 2 "" H 1600 1050 50  0001 C CNN
F 3 "" H 1600 1050 50  0001 C CNN
	1    1600 1050
	1    0    0    -1  
$EndComp
$Comp
L power:PWR_FLAG #FLG01
U 1 1 5D437E64
P 1700 1050
F 0 "#FLG01" H 1700 1125 50  0001 C CNN
F 1 "PWR_FLAG" H 1700 1223 50  0000 C CNN
F 2 "" H 1700 1050 50  0001 C CNN
F 3 "~" H 1700 1050 50  0001 C CNN
	1    1700 1050
	1    0    0    -1  
$EndComp
$Comp
L power:GND #PWR01
U 1 1 5D438198
P 1250 1700
F 0 "#PWR01" H 1250 1450 50  0001 C CNN
F 1 "GND" H 1255 1527 50  0000 C CNN
F 2 "" H 1250 1700 50  0001 C CNN
F 3 "" H 1250 1700 50  0001 C CNN
	1    1250 1700
	1    0    0    -1  
$EndComp
Wire Wire Line
	1250 1650 1250 1700
Wire Wire Line
	1550 1050 1600 1050
Wire Wire Line
	1700 1050 1600 1050
Connection ~ 1600 1050
NoConn ~ 1550 1250
NoConn ~ 1550 1350
NoConn ~ 1550 1450
NoConn ~ 1150 1650
$Comp
L power:GND #PWR013
U 1 1 5D4395C8
P 8500 1600
F 0 "#PWR013" H 8500 1350 50  0001 C CNN
F 1 "GND" V 8505 1472 50  0000 R CNN
F 2 "" H 8500 1600 50  0001 C CNN
F 3 "" H 8500 1600 50  0001 C CNN
	1    8500 1600
	0    1    1    0   
$EndComp
Wire Wire Line
	8500 1600 8550 1600
$Comp
L Connector:Conn_01x04_Female IN_RF1
U 1 1 5D439D0E
P 5500 2400
F 0 "IN_RF1" H 5528 2376 50  0000 L CNN
F 1 "Conn_01x04_Female" H 5528 2285 50  0000 L CNN
F 2 "Connector_PinSocket_2.54mm:PinSocket_1x04_P2.54mm_Vertical" H 5500 2400 50  0001 C CNN
F 3 "~" H 5500 2400 50  0001 C CNN
	1    5500 2400
	1    0    0    -1  
$EndComp
$Comp
L Connector:Conn_01x03_Female OUT_RF1
U 1 1 5D43A609
P 6950 2450
F 0 "OUT_RF1" H 6978 2476 50  0000 L CNN
F 1 "Conn_01x03_Female" H 6978 2385 50  0000 L CNN
F 2 "Connector_PinSocket_2.54mm:PinSocket_1x03_P2.54mm_Vertical" H 6950 2450 50  0001 C CNN
F 3 "~" H 6950 2450 50  0001 C CNN
	1    6950 2450
	1    0    0    -1  
$EndComp
$Comp
L power:+5V #PWR05
U 1 1 5D43B182
P 5250 2300
F 0 "#PWR05" H 5250 2150 50  0001 C CNN
F 1 "+5V" H 5265 2473 50  0000 C CNN
F 2 "" H 5250 2300 50  0001 C CNN
F 3 "" H 5250 2300 50  0001 C CNN
	1    5250 2300
	1    0    0    -1  
$EndComp
Text GLabel 5250 2400 0    50   Input ~ 0
IN_DATA_RF0
Text GLabel 5250 2500 0    50   Input ~ 0
IN_DATA_RF0
Wire Wire Line
	5250 2300 5300 2300
Wire Wire Line
	5250 2400 5300 2400
Wire Wire Line
	5250 2500 5300 2500
$Comp
L power:GND #PWR06
U 1 1 5D43D8F3
P 5250 2600
F 0 "#PWR06" H 5250 2350 50  0001 C CNN
F 1 "GND" H 5255 2427 50  0000 C CNN
F 2 "" H 5250 2600 50  0001 C CNN
F 3 "" H 5250 2600 50  0001 C CNN
	1    5250 2600
	1    0    0    -1  
$EndComp
Wire Wire Line
	5250 2600 5300 2600
Text GLabel 6700 2450 0    50   Input ~ 0
OUT_DATA_RF
$Comp
L power:+5V #PWR011
U 1 1 5D43E624
P 6700 2350
F 0 "#PWR011" H 6700 2200 50  0001 C CNN
F 1 "+5V" H 6715 2523 50  0000 C CNN
F 2 "" H 6700 2350 50  0001 C CNN
F 3 "" H 6700 2350 50  0001 C CNN
	1    6700 2350
	1    0    0    -1  
$EndComp
$Comp
L power:GND #PWR012
U 1 1 5D43E91C
P 6700 2550
F 0 "#PWR012" H 6700 2300 50  0001 C CNN
F 1 "GND" H 6705 2377 50  0000 C CNN
F 2 "" H 6700 2550 50  0001 C CNN
F 3 "" H 6700 2550 50  0001 C CNN
	1    6700 2550
	1    0    0    -1  
$EndComp
Wire Wire Line
	6700 2550 6750 2550
Wire Wire Line
	6750 2450 6700 2450
Wire Wire Line
	6700 2350 6750 2350
Text GLabel 9600 1700 2    50   Input ~ 0
OUT_DATA_RF
Text GLabel 9600 1900 2    50   Input ~ 0
IN_DATA_RF0
Text GLabel 9600 1800 2    50   Input ~ 0
IN_DATA_RF0
Wire Wire Line
	9550 2000 9600 2000
Wire Wire Line
	9600 2000 9600 2200
Wire Wire Line
	9600 2200 9550 2200
Text GLabel 8550 1800 0    50   Input ~ 0
DHT
Text GLabel 5200 3200 0    50   Input ~ 0
DHT
$Comp
L Connector:Conn_01x03_Female DHT11
U 1 1 5D4411E8
P 5450 3200
F 0 "DHT11" H 5478 3226 50  0000 L CNN
F 1 "Conn_01x03_Female" H 5478 3135 50  0000 L CNN
F 2 "Connector_PinSocket_2.54mm:PinSocket_1x03_P2.54mm_Vertical" H 5450 3200 50  0001 C CNN
F 3 "~" H 5450 3200 50  0001 C CNN
	1    5450 3200
	1    0    0    -1  
$EndComp
$Comp
L power:GND #PWR08
U 1 1 5D44155C
P 5250 3300
F 0 "#PWR08" H 5250 3050 50  0001 C CNN
F 1 "GND" H 5255 3127 50  0000 C CNN
F 2 "" H 5250 3300 50  0001 C CNN
F 3 "" H 5250 3300 50  0001 C CNN
	1    5250 3300
	1    0    0    -1  
$EndComp
$Comp
L power:+3.3V #PWR07
U 1 1 5D441AE8
P 5250 3100
F 0 "#PWR07" H 5250 2950 50  0001 C CNN
F 1 "+3.3V" H 5265 3273 50  0000 C CNN
F 2 "" H 5250 3100 50  0001 C CNN
F 3 "" H 5250 3100 50  0001 C CNN
	1    5250 3100
	1    0    0    -1  
$EndComp
Wire Wire Line
	5200 3200 5250 3200
NoConn ~ 8550 2000
NoConn ~ 8550 2100
NoConn ~ 8550 2200
NoConn ~ 9550 1600
Wire Wire Line
	9550 1700 9600 1700
Wire Wire Line
	9550 1800 9600 1800
Wire Wire Line
	9600 1900 9550 1900
NoConn ~ 9550 2100
NoConn ~ 7700 1450
$Comp
L power:+3.3V #PWR015
U 1 1 5D435A29
P 9550 1500
F 0 "#PWR015" H 9550 1350 50  0001 C CNN
F 1 "+3.3V" H 9565 1673 50  0000 C CNN
F 2 "" H 9550 1500 50  0001 C CNN
F 3 "" H 9550 1500 50  0001 C CNN
	1    9550 1500
	1    0    0    -1  
$EndComp
$Comp
L power:VCC #PWR0101
U 1 1 5D43263D
P 8350 1500
F 0 "#PWR0101" H 8350 1350 50  0001 C CNN
F 1 "VCC" H 8367 1673 50  0000 C CNN
F 2 "" H 8350 1500 50  0001 C CNN
F 3 "" H 8350 1500 50  0001 C CNN
	1    8350 1500
	1    0    0    -1  
$EndComp
Wire Wire Line
	8550 1500 8350 1500
Connection ~ 8550 1500
$Comp
L power:+5V #PWR014
U 1 1 5D4363E2
P 8550 1500
F 0 "#PWR014" H 8550 1350 50  0001 C CNN
F 1 "+5V" H 8565 1673 50  0000 C CNN
F 2 "" H 8550 1500 50  0001 C CNN
F 3 "" H 8550 1500 50  0001 C CNN
	1    8550 1500
	1    0    0    -1  
$EndComp
$EndSCHEMATC
