(export (version D)
  (design
    (source C:\Users\beyoso\Documents\Arduino\Esp8266_IR_Send_Mqtt\Esquematico\Wemos_SendToIR.sch)
    (date "01/08/2019 21:31:23")
    (tool "Eeschema (5.0.1)-4")
    (sheet (number 1) (name /) (tstamps /)
      (title_block
        (title)
        (company)
        (rev)
        (date)
        (source Wemos_SendToIR.sch)
        (comment (number 1) (value ""))
        (comment (number 2) (value ""))
        (comment (number 3) (value ""))
        (comment (number 4) (value "")))))
  (components
    (comp (ref U1)
      (value WeMos_mini)
      (footprint wemos_d1_mini:D1_mini_board)
      (datasheet http://www.wemos.cc/Products/d1_mini.html)
      (libsource (lib Wemos_SendToIR-rescue) (part WeMos_mini-wemos_mini) (description ""))
      (sheetpath (names /) (tstamps /))
      (tstamp 5D42DAD7))
    (comp (ref D4)
      (value LED_ALT)
      (footprint LED_THT:LED_D5.0mm)
      (datasheet ~)
      (libsource (lib Device) (part LED_ALT) (description "Light emitting diode, filled shape"))
      (sheetpath (names /) (tstamps /))
      (tstamp 5D42E360))
    (comp (ref D3)
      (value LED_ALT)
      (footprint LED_THT:LED_D5.0mm)
      (datasheet ~)
      (libsource (lib Device) (part LED_ALT) (description "Light emitting diode, filled shape"))
      (sheetpath (names /) (tstamps /))
      (tstamp 5D42F029))
    (comp (ref D2)
      (value LED_ALT)
      (footprint LED_THT:LED_D5.0mm)
      (datasheet ~)
      (libsource (lib Device) (part LED_ALT) (description "Light emitting diode, filled shape"))
      (sheetpath (names /) (tstamps /))
      (tstamp 5D42FF31))
    (comp (ref D1)
      (value LED_ALT)
      (footprint LED_THT:LED_D5.0mm)
      (datasheet ~)
      (libsource (lib Device) (part LED_ALT) (description "Light emitting diode, filled shape"))
      (sheetpath (names /) (tstamps /))
      (tstamp 5D4302F9))
    (comp (ref R1)
      (value R)
      (footprint Resistor_THT:R_Axial_DIN0309_L9.0mm_D3.2mm_P12.70mm_Horizontal)
      (datasheet ~)
      (libsource (lib Device) (part R) (description Resistor))
      (sheetpath (names /) (tstamps /))
      (tstamp 5D4306F5))
    (comp (ref R2)
      (value R)
      (footprint Resistor_THT:R_Axial_DIN0309_L9.0mm_D3.2mm_P12.70mm_Horizontal)
      (datasheet ~)
      (libsource (lib Device) (part R) (description Resistor))
      (sheetpath (names /) (tstamps /))
      (tstamp 5D4309FB))
    (comp (ref R3)
      (value R)
      (footprint Resistor_THT:R_Axial_DIN0309_L9.0mm_D3.2mm_P12.70mm_Horizontal)
      (datasheet ~)
      (libsource (lib Device) (part R) (description Resistor))
      (sheetpath (names /) (tstamps /))
      (tstamp 5D430B50))
    (comp (ref R4)
      (value R)
      (footprint Resistor_THT:R_Axial_DIN0309_L9.0mm_D3.2mm_P12.70mm_Horizontal)
      (datasheet ~)
      (libsource (lib Device) (part R) (description Resistor))
      (sheetpath (names /) (tstamps /))
      (tstamp 5D430CB0))
    (comp (ref Q1)
      (value 2N2219)
      (footprint Package_TO_SOT_THT:TO-92)
      (datasheet http://www.onsemi.com/pub_link/Collateral/2N2219-D.PDF)
      (libsource (lib Transistor_BJT) (part 2N2219) (description "800mA Ic, 50V Vce, NPN Transistor, TO-39"))
      (sheetpath (names /) (tstamps /))
      (tstamp 5D431900))
    (comp (ref IN_IR1)
      (value Conn_01x03_Female)
      (footprint Connector_PinSocket_2.54mm:PinSocket_1x03_P2.54mm_Vertical)
      (datasheet ~)
      (libsource (lib Connector) (part Conn_01x03_Female) (description "Generic connector, single row, 01x03, script generated (kicad-library-utils/schlib/autogen/connector/)"))
      (sheetpath (names /) (tstamps /))
      (tstamp 5D4343C4))
    (comp (ref J1)
      (value USB_B_Micro)
      (footprint Connector_USB:USB_Micro-B_Amphenol_10103594-0001LF_Horizontal)
      (datasheet ~)
      (libsource (lib Connector) (part USB_B_Micro) (description "USB Micro Type B connector"))
      (sheetpath (names /) (tstamps /))
      (tstamp 5D4368FC))
    (comp (ref IN_RF1)
      (value Conn_01x04_Female)
      (footprint Connector_PinSocket_2.54mm:PinSocket_1x04_P2.54mm_Vertical)
      (datasheet ~)
      (libsource (lib Connector) (part Conn_01x04_Female) (description "Generic connector, single row, 01x04, script generated (kicad-library-utils/schlib/autogen/connector/)"))
      (sheetpath (names /) (tstamps /))
      (tstamp 5D439D0E))
    (comp (ref OUT_RF1)
      (value Conn_01x03_Female)
      (footprint Connector_PinSocket_2.54mm:PinSocket_1x03_P2.54mm_Vertical)
      (datasheet ~)
      (libsource (lib Connector) (part Conn_01x03_Female) (description "Generic connector, single row, 01x03, script generated (kicad-library-utils/schlib/autogen/connector/)"))
      (sheetpath (names /) (tstamps /))
      (tstamp 5D43A609))
    (comp (ref DHT11)
      (value Conn_01x03_Female)
      (footprint Connector_PinSocket_2.54mm:PinSocket_1x03_P2.54mm_Vertical)
      (datasheet ~)
      (libsource (lib Connector) (part Conn_01x03_Female) (description "Generic connector, single row, 01x03, script generated (kicad-library-utils/schlib/autogen/connector/)"))
      (sheetpath (names /) (tstamps /))
      (tstamp 5D4411E8)))
  (libparts
    (libpart (lib Connector) (part Conn_01x03_Female)
      (description "Generic connector, single row, 01x03, script generated (kicad-library-utils/schlib/autogen/connector/)")
      (docs ~)
      (footprints
        (fp Connector*:*_1x??_*))
      (fields
        (field (name Reference) J)
        (field (name Value) Conn_01x03_Female))
      (pins
        (pin (num 1) (name Pin_1) (type passive))
        (pin (num 2) (name Pin_2) (type passive))
        (pin (num 3) (name Pin_3) (type passive))))
    (libpart (lib Connector) (part Conn_01x04_Female)
      (description "Generic connector, single row, 01x04, script generated (kicad-library-utils/schlib/autogen/connector/)")
      (docs ~)
      (footprints
        (fp Connector*:*_1x??_*))
      (fields
        (field (name Reference) J)
        (field (name Value) Conn_01x04_Female))
      (pins
        (pin (num 1) (name Pin_1) (type passive))
        (pin (num 2) (name Pin_2) (type passive))
        (pin (num 3) (name Pin_3) (type passive))
        (pin (num 4) (name Pin_4) (type passive))))
    (libpart (lib Connector) (part USB_B_Micro)
      (aliases
        (alias USB_B_Mini))
      (description "USB Micro Type B connector")
      (docs ~)
      (footprints
        (fp USB*))
      (fields
        (field (name Reference) J)
        (field (name Value) USB_B_Micro))
      (pins
        (pin (num 1) (name VBUS) (type power_out))
        (pin (num 2) (name D-) (type passive))
        (pin (num 3) (name D+) (type passive))
        (pin (num 4) (name ID) (type passive))
        (pin (num 5) (name GND) (type power_out))
        (pin (num 6) (name Shield) (type passive))))
    (libpart (lib Device) (part LED_ALT)
      (description "Light emitting diode, filled shape")
      (docs ~)
      (footprints
        (fp LED*)
        (fp LED_SMD:*)
        (fp LED_THT:*))
      (fields
        (field (name Reference) D)
        (field (name Value) LED_ALT))
      (pins
        (pin (num 1) (name K) (type passive))
        (pin (num 2) (name A) (type passive))))
    (libpart (lib Device) (part R)
      (description Resistor)
      (docs ~)
      (footprints
        (fp R_*))
      (fields
        (field (name Reference) R)
        (field (name Value) R))
      (pins
        (pin (num 1) (name ~) (type passive))
        (pin (num 2) (name ~) (type passive))))
    (libpart (lib Transistor_BJT) (part 2N2219)
      (aliases
        (alias BC140)
        (alias BC141))
      (description "800mA Ic, 50V Vce, NPN Transistor, TO-39")
      (docs http://www.onsemi.com/pub_link/Collateral/2N2219-D.PDF)
      (footprints
        (fp TO?39*))
      (fields
        (field (name Reference) Q)
        (field (name Value) 2N2219)
        (field (name Footprint) Package_TO_SOT_THT:TO-39-3))
      (pins
        (pin (num 1) (name E) (type passive))
        (pin (num 2) (name B) (type passive))
        (pin (num 3) (name C) (type passive))))
    (libpart (lib Wemos_SendToIR-rescue) (part WeMos_mini-wemos_mini)
      (fields
        (field (name Reference) U)
        (field (name Value) WeMos_mini-wemos_mini))
      (pins
        (pin (num 1) (name 5V) (type power_in))
        (pin (num 2) (name GND) (type power_in))
        (pin (num 3) (name D4) (type BiDi))
        (pin (num 4) (name D3) (type BiDi))
        (pin (num 5) (name D2) (type BiDi))
        (pin (num 6) (name D1) (type BiDi))
        (pin (num 7) (name Rx) (type BiDi))
        (pin (num 8) (name Tx) (type BiDi))
        (pin (num 9) (name Rst) (type BiDi))
        (pin (num 10) (name A0) (type BiDi))
        (pin (num 11) (name D0) (type BiDi))
        (pin (num 12) (name D5) (type BiDi))
        (pin (num 13) (name D6) (type BiDi))
        (pin (num 14) (name D7) (type BiDi))
        (pin (num 15) (name D8) (type BiDi))
        (pin (num 16) (name 3.3V) (type power_out)))))
  (libraries
    (library (logical Connector)
      (uri "C:\\Program Files\\KiCad\\share\\kicad\\library/Connector.lib"))
    (library (logical Device)
      (uri "C:\\Program Files\\KiCad\\share\\kicad\\library/Device.lib"))
    (library (logical Transistor_BJT)
      (uri "C:\\Program Files\\KiCad\\share\\kicad\\library/Transistor_BJT.lib"))
    (library (logical Wemos_SendToIR-rescue)
      (uri C:\Users\beyoso\Documents\Arduino\Esp8266_IR_Send_Mqtt\Esquematico/Wemos_SendToIR-rescue.lib)))
  (nets
    (net (code 1) (name IN_DATA_RF0)
      (node (ref U1) (pin 13))
      (node (ref IN_RF1) (pin 2))
      (node (ref IN_RF1) (pin 3))
      (node (ref U1) (pin 12)))
    (net (code 2) (name +5V)
      (node (ref J1) (pin 1))
      (node (ref R3) (pin 1))
      (node (ref IN_RF1) (pin 1))
      (node (ref R1) (pin 1))
      (node (ref U1) (pin 1))
      (node (ref R4) (pin 1))
      (node (ref R2) (pin 1))
      (node (ref OUT_RF1) (pin 1)))
    (net (code 3) (name GND)
      (node (ref U1) (pin 2))
      (node (ref J1) (pin 5))
      (node (ref DHT11) (pin 3))
      (node (ref IN_IR1) (pin 2))
      (node (ref OUT_RF1) (pin 3))
      (node (ref IN_RF1) (pin 4))
      (node (ref Q1) (pin 1)))
    (net (code 4) (name OUT_DATA_RF)
      (node (ref OUT_RF1) (pin 2))
      (node (ref U1) (pin 14)))
    (net (code 5) (name "Net-(J1-Pad3)")
      (node (ref J1) (pin 3)))
    (net (code 6) (name "Net-(J1-Pad2)")
      (node (ref J1) (pin 2)))
    (net (code 7) (name "Net-(J1-Pad4)")
      (node (ref J1) (pin 4)))
    (net (code 8) (name "Net-(J1-Pad6)")
      (node (ref J1) (pin 6)))
    (net (code 10) (name "Net-(U1-Pad6)")
      (node (ref U1) (pin 6)))
    (net (code 11) (name "Net-(U1-Pad7)")
      (node (ref U1) (pin 7)))
    (net (code 12) (name "Net-(U1-Pad8)")
      (node (ref U1) (pin 8)))
    (net (code 13) (name "Net-(U1-Pad15)")
      (node (ref U1) (pin 15)))
    (net (code 14) (name "Net-(U1-Pad10)")
      (node (ref U1) (pin 10)))
    (net (code 15) (name +3V3)
      (node (ref IN_IR1) (pin 1))
      (node (ref DHT11) (pin 1))
      (node (ref U1) (pin 16)))
    (net (code 16) (name "Net-(U1-Pad11)")
      (node (ref U1) (pin 11))
      (node (ref U1) (pin 9)))
    (net (code 17) (name "Net-(D3-Pad2)")
      (node (ref D3) (pin 2))
      (node (ref R3) (pin 2)))
    (net (code 18) (name "Net-(D2-Pad2)")
      (node (ref R2) (pin 2))
      (node (ref D2) (pin 2)))
    (net (code 19) (name "Net-(D1-Pad2)")
      (node (ref R1) (pin 2))
      (node (ref D1) (pin 2)))
    (net (code 20) (name "Net-(D4-Pad2)")
      (node (ref R4) (pin 2))
      (node (ref D4) (pin 2)))
    (net (code 21) (name DHT)
      (node (ref U1) (pin 4))
      (node (ref DHT11) (pin 2)))
    (net (code 22) (name OUR_Ir)
      (node (ref U1) (pin 5))
      (node (ref Q1) (pin 2)))
    (net (code 23) (name "Net-(D1-Pad1)")
      (node (ref Q1) (pin 3))
      (node (ref D4) (pin 1))
      (node (ref D1) (pin 1))
      (node (ref D2) (pin 1))
      (node (ref D3) (pin 1)))
    (net (code 24) (name IN_IR)
      (node (ref U1) (pin 3))
      (node (ref IN_IR1) (pin 3)))))